
*** Running vivado
    with args -log hdmi_out_xlconcat_0_0.vds -m64 -product Vivado -mode batch -messageDb vivado.pb -notrace -source hdmi_out_xlconcat_0_0.tcl


****** Vivado v2018.3 (64-bit)
  **** SW Build 2405991 on Thu Dec  6 23:38:27 MST 2018
  **** IP Build 2404404 on Fri Dec  7 01:43:56 MST 2018
    ** Copyright 1986-2018 Xilinx, Inc. All Rights Reserved.

source hdmi_out_xlconcat_0_0.tcl -notrace
INFO: [IP_Flow 19-234] Refreshing IP repositories
INFO: [IP_Flow 19-1700] Loaded user IP repository 'c:/Users/User/Downloads/Vivado/labsolution/hdmi2/vivado_proj/Arty-Z7-20-hdmi-out.ipdefs/repo_0'.
INFO: [IP_Flow 19-2313] Loaded Vivado IP repository 'C:/Xilinx/Vivado/2018.3/data/ip'.
update_ip_catalog: Time (s): cpu = 00:00:05 ; elapsed = 00:00:07 . Memory (MB): peak = 274.672 ; gain = 21.793
WARNING: [IP_Flow 19-4995] The host OS only allows 260 characters in a normal path. The IP cache path is more than 80 characters. If you experience issues with IP caching, please consider changing the IP cache to a location with a shorter path. Alternately consider using the OS subst command to map part of the path to a drive letter. 
Current IP cache path is c:/Users/User/Downloads/Vivado/labsolution/hdmi2/vivado_proj/Arty-Z7-20-hdmi-out.cache/ip 
INFO: [IP_Flow 19-4838] Using cached IP synthesis design for IP hdmi_out_xlconcat_0_0, cache-ID = 3f747a477aa28f17.
INFO: [Common 17-206] Exiting Vivado at Mon Jan 21 23:43:39 2019...
