axi4stream_vip_axi4streampc.sv,systemverilog,xilinx_vip,../../../../../../../../../Xilinx/Vivado/2018.3/data/xilinx_vip/hdl/axi4stream_vip_axi4streampc.sv,incdir="../../../../Arty-Z7-20-hdmi-out.srcs/sources_1/bd/hdmi_out/ipshared/58e2/hdl"incdir="../../../../Arty-Z7-20-hdmi-out.srcs/sources_1/bd/hdmi_out/ipshared/8713/hdl"incdir="../../../../Arty-Z7-20-hdmi-out.srcs/sources_1/bd/hdmi_out/ipshared/ec67/hdl"incdir="../../../../Arty-Z7-20-hdmi-out.srcs/sources_1/bd/hdmi_out/ipshared/70cf/hdl"incdir="../../../../Arty-Z7-20-hdmi-out.srcs/sources_1/bd/hdmi_out/ipshared/58e2/hdl"incdir="../../../../Arty-Z7-20-hdmi-out.srcs/sources_1/bd/hdmi_out/ipshared/8713/hdl"incdir="../../../../Arty-Z7-20-hdmi-out.srcs/sources_1/bd/hdmi_out/ipshared/ec67/hdl"incdir="../../../../Arty-Z7-20-hdmi-out.srcs/sources_1/bd/hdmi_out/ipshared/70cf/hdl"incdir="../../../../Arty-Z7-20-hdmi-out.srcs/sources_1/bd/hdmi_out/ip/hdmi_out_processing_system7_0_0"
axi_vip_axi4pc.sv,systemverilog,xilinx_vip,../../../../../../../../../Xilinx/Vivado/2018.3/data/xilinx_vip/hdl/axi_vip_axi4pc.sv,incdir="../../../../Arty-Z7-20-hdmi-out.srcs/sources_1/bd/hdmi_out/ipshared/58e2/hdl"incdir="../../../../Arty-Z7-20-hdmi-out.srcs/sources_1/bd/hdmi_out/ipshared/8713/hdl"incdir="../../../../Arty-Z7-20-hdmi-out.srcs/sources_1/bd/hdmi_out/ipshared/ec67/hdl"incdir="../../../../Arty-Z7-20-hdmi-out.srcs/sources_1/bd/hdmi_out/ipshared/70cf/hdl"incdir="../../../../Arty-Z7-20-hdmi-out.srcs/sources_1/bd/hdmi_out/ipshared/58e2/hdl"incdir="../../../../Arty-Z7-20-hdmi-out.srcs/sources_1/bd/hdmi_out/ipshared/8713/hdl"incdir="../../../../Arty-Z7-20-hdmi-out.srcs/sources_1/bd/hdmi_out/ipshared/ec67/hdl"incdir="../../../../Arty-Z7-20-hdmi-out.srcs/sources_1/bd/hdmi_out/ipshared/70cf/hdl"incdir="../../../../Arty-Z7-20-hdmi-out.srcs/sources_1/bd/hdmi_out/ip/hdmi_out_processing_system7_0_0"
xil_common_vip_pkg.sv,systemverilog,xilinx_vip,../../../../../../../../../Xilinx/Vivado/2018.3/data/xilinx_vip/hdl/xil_common_vip_pkg.sv,incdir="../../../../Arty-Z7-20-hdmi-out.srcs/sources_1/bd/hdmi_out/ipshared/58e2/hdl"incdir="../../../../Arty-Z7-20-hdmi-out.srcs/sources_1/bd/hdmi_out/ipshared/8713/hdl"incdir="../../../../Arty-Z7-20-hdmi-out.srcs/sources_1/bd/hdmi_out/ipshared/ec67/hdl"incdir="../../../../Arty-Z7-20-hdmi-out.srcs/sources_1/bd/hdmi_out/ipshared/70cf/hdl"incdir="../../../../Arty-Z7-20-hdmi-out.srcs/sources_1/bd/hdmi_out/ipshared/58e2/hdl"incdir="../../../../Arty-Z7-20-hdmi-out.srcs/sources_1/bd/hdmi_out/ipshared/8713/hdl"incdir="../../../../Arty-Z7-20-hdmi-out.srcs/sources_1/bd/hdmi_out/ipshared/ec67/hdl"incdir="../../../../Arty-Z7-20-hdmi-out.srcs/sources_1/bd/hdmi_out/ipshared/70cf/hdl"incdir="../../../../Arty-Z7-20-hdmi-out.srcs/sources_1/bd/hdmi_out/ip/hdmi_out_processing_system7_0_0"
axi4stream_vip_pkg.sv,systemverilog,xilinx_vip,../../../../../../../../../Xilinx/Vivado/2018.3/data/xilinx_vip/hdl/axi4stream_vip_pkg.sv,incdir="../../../../Arty-Z7-20-hdmi-out.srcs/sources_1/bd/hdmi_out/ipshared/58e2/hdl"incdir="../../../../Arty-Z7-20-hdmi-out.srcs/sources_1/bd/hdmi_out/ipshared/8713/hdl"incdir="../../../../Arty-Z7-20-hdmi-out.srcs/sources_1/bd/hdmi_out/ipshared/ec67/hdl"incdir="../../../../Arty-Z7-20-hdmi-out.srcs/sources_1/bd/hdmi_out/ipshared/70cf/hdl"incdir="../../../../Arty-Z7-20-hdmi-out.srcs/sources_1/bd/hdmi_out/ipshared/58e2/hdl"incdir="../../../../Arty-Z7-20-hdmi-out.srcs/sources_1/bd/hdmi_out/ipshared/8713/hdl"incdir="../../../../Arty-Z7-20-hdmi-out.srcs/sources_1/bd/hdmi_out/ipshared/ec67/hdl"incdir="../../../../Arty-Z7-20-hdmi-out.srcs/sources_1/bd/hdmi_out/ipshared/70cf/hdl"incdir="../../../../Arty-Z7-20-hdmi-out.srcs/sources_1/bd/hdmi_out/ip/hdmi_out_processing_system7_0_0"
axi_vip_pkg.sv,systemverilog,xilinx_vip,../../../../../../../../../Xilinx/Vivado/2018.3/data/xilinx_vip/hdl/axi_vip_pkg.sv,incdir="../../../../Arty-Z7-20-hdmi-out.srcs/sources_1/bd/hdmi_out/ipshared/58e2/hdl"incdir="../../../../Arty-Z7-20-hdmi-out.srcs/sources_1/bd/hdmi_out/ipshared/8713/hdl"incdir="../../../../Arty-Z7-20-hdmi-out.srcs/sources_1/bd/hdmi_out/ipshared/ec67/hdl"incdir="../../../../Arty-Z7-20-hdmi-out.srcs/sources_1/bd/hdmi_out/ipshared/70cf/hdl"incdir="../../../../Arty-Z7-20-hdmi-out.srcs/sources_1/bd/hdmi_out/ipshared/58e2/hdl"incdir="../../../../Arty-Z7-20-hdmi-out.srcs/sources_1/bd/hdmi_out/ipshared/8713/hdl"incdir="../../../../Arty-Z7-20-hdmi-out.srcs/sources_1/bd/hdmi_out/ipshared/ec67/hdl"incdir="../../../../Arty-Z7-20-hdmi-out.srcs/sources_1/bd/hdmi_out/ipshared/70cf/hdl"incdir="../../../../Arty-Z7-20-hdmi-out.srcs/sources_1/bd/hdmi_out/ip/hdmi_out_processing_system7_0_0"
axi4stream_vip_if.sv,systemverilog,xilinx_vip,../../../../../../../../../Xilinx/Vivado/2018.3/data/xilinx_vip/hdl/axi4stream_vip_if.sv,incdir="../../../../Arty-Z7-20-hdmi-out.srcs/sources_1/bd/hdmi_out/ipshared/58e2/hdl"incdir="../../../../Arty-Z7-20-hdmi-out.srcs/sources_1/bd/hdmi_out/ipshared/8713/hdl"incdir="../../../../Arty-Z7-20-hdmi-out.srcs/sources_1/bd/hdmi_out/ipshared/ec67/hdl"incdir="../../../../Arty-Z7-20-hdmi-out.srcs/sources_1/bd/hdmi_out/ipshared/70cf/hdl"incdir="../../../../Arty-Z7-20-hdmi-out.srcs/sources_1/bd/hdmi_out/ipshared/58e2/hdl"incdir="../../../../Arty-Z7-20-hdmi-out.srcs/sources_1/bd/hdmi_out/ipshared/8713/hdl"incdir="../../../../Arty-Z7-20-hdmi-out.srcs/sources_1/bd/hdmi_out/ipshared/ec67/hdl"incdir="../../../../Arty-Z7-20-hdmi-out.srcs/sources_1/bd/hdmi_out/ipshared/70cf/hdl"incdir="../../../../Arty-Z7-20-hdmi-out.srcs/sources_1/bd/hdmi_out/ip/hdmi_out_processing_system7_0_0"
axi_vip_if.sv,systemverilog,xilinx_vip,../../../../../../../../../Xilinx/Vivado/2018.3/data/xilinx_vip/hdl/axi_vip_if.sv,incdir="../../../../Arty-Z7-20-hdmi-out.srcs/sources_1/bd/hdmi_out/ipshared/58e2/hdl"incdir="../../../../Arty-Z7-20-hdmi-out.srcs/sources_1/bd/hdmi_out/ipshared/8713/hdl"incdir="../../../../Arty-Z7-20-hdmi-out.srcs/sources_1/bd/hdmi_out/ipshared/ec67/hdl"incdir="../../../../Arty-Z7-20-hdmi-out.srcs/sources_1/bd/hdmi_out/ipshared/70cf/hdl"incdir="../../../../Arty-Z7-20-hdmi-out.srcs/sources_1/bd/hdmi_out/ipshared/58e2/hdl"incdir="../../../../Arty-Z7-20-hdmi-out.srcs/sources_1/bd/hdmi_out/ipshared/8713/hdl"incdir="../../../../Arty-Z7-20-hdmi-out.srcs/sources_1/bd/hdmi_out/ipshared/ec67/hdl"incdir="../../../../Arty-Z7-20-hdmi-out.srcs/sources_1/bd/hdmi_out/ipshared/70cf/hdl"incdir="../../../../Arty-Z7-20-hdmi-out.srcs/sources_1/bd/hdmi_out/ip/hdmi_out_processing_system7_0_0"
clk_vip_if.sv,systemverilog,xilinx_vip,../../../../../../../../../Xilinx/Vivado/2018.3/data/xilinx_vip/hdl/clk_vip_if.sv,incdir="../../../../Arty-Z7-20-hdmi-out.srcs/sources_1/bd/hdmi_out/ipshared/58e2/hdl"incdir="../../../../Arty-Z7-20-hdmi-out.srcs/sources_1/bd/hdmi_out/ipshared/8713/hdl"incdir="../../../../Arty-Z7-20-hdmi-out.srcs/sources_1/bd/hdmi_out/ipshared/ec67/hdl"incdir="../../../../Arty-Z7-20-hdmi-out.srcs/sources_1/bd/hdmi_out/ipshared/70cf/hdl"incdir="../../../../Arty-Z7-20-hdmi-out.srcs/sources_1/bd/hdmi_out/ipshared/58e2/hdl"incdir="../../../../Arty-Z7-20-hdmi-out.srcs/sources_1/bd/hdmi_out/ipshared/8713/hdl"incdir="../../../../Arty-Z7-20-hdmi-out.srcs/sources_1/bd/hdmi_out/ipshared/ec67/hdl"incdir="../../../../Arty-Z7-20-hdmi-out.srcs/sources_1/bd/hdmi_out/ipshared/70cf/hdl"incdir="../../../../Arty-Z7-20-hdmi-out.srcs/sources_1/bd/hdmi_out/ip/hdmi_out_processing_system7_0_0"
rst_vip_if.sv,systemverilog,xilinx_vip,../../../../../../../../../Xilinx/Vivado/2018.3/data/xilinx_vip/hdl/rst_vip_if.sv,incdir="../../../../Arty-Z7-20-hdmi-out.srcs/sources_1/bd/hdmi_out/ipshared/58e2/hdl"incdir="../../../../Arty-Z7-20-hdmi-out.srcs/sources_1/bd/hdmi_out/ipshared/8713/hdl"incdir="../../../../Arty-Z7-20-hdmi-out.srcs/sources_1/bd/hdmi_out/ipshared/ec67/hdl"incdir="../../../../Arty-Z7-20-hdmi-out.srcs/sources_1/bd/hdmi_out/ipshared/70cf/hdl"incdir="../../../../Arty-Z7-20-hdmi-out.srcs/sources_1/bd/hdmi_out/ipshared/58e2/hdl"incdir="../../../../Arty-Z7-20-hdmi-out.srcs/sources_1/bd/hdmi_out/ipshared/8713/hdl"incdir="../../../../Arty-Z7-20-hdmi-out.srcs/sources_1/bd/hdmi_out/ipshared/ec67/hdl"incdir="../../../../Arty-Z7-20-hdmi-out.srcs/sources_1/bd/hdmi_out/ipshared/70cf/hdl"incdir="../../../../Arty-Z7-20-hdmi-out.srcs/sources_1/bd/hdmi_out/ip/hdmi_out_processing_system7_0_0"
xpm_cdc.sv,systemverilog,xil_defaultlib,../../../../../../../../../Xilinx/Vivado/2018.3/data/ip/xpm/xpm_cdc/hdl/xpm_cdc.sv,incdir="../../../../Arty-Z7-20-hdmi-out.srcs/sources_1/bd/hdmi_out/ipshared/58e2/hdl"incdir="../../../../Arty-Z7-20-hdmi-out.srcs/sources_1/bd/hdmi_out/ipshared/8713/hdl"incdir="../../../../Arty-Z7-20-hdmi-out.srcs/sources_1/bd/hdmi_out/ipshared/ec67/hdl"incdir="../../../../Arty-Z7-20-hdmi-out.srcs/sources_1/bd/hdmi_out/ipshared/70cf/hdl"incdir="../../../../Arty-Z7-20-hdmi-out.srcs/sources_1/bd/hdmi_out/ipshared/58e2/hdl"incdir="../../../../Arty-Z7-20-hdmi-out.srcs/sources_1/bd/hdmi_out/ipshared/8713/hdl"incdir="../../../../Arty-Z7-20-hdmi-out.srcs/sources_1/bd/hdmi_out/ipshared/ec67/hdl"incdir="../../../../Arty-Z7-20-hdmi-out.srcs/sources_1/bd/hdmi_out/ipshared/70cf/hdl"incdir="../../../../Arty-Z7-20-hdmi-out.srcs/sources_1/bd/hdmi_out/ip/hdmi_out_processing_system7_0_0"
xpm_fifo.sv,systemverilog,xil_defaultlib,../../../../../../../../../Xilinx/Vivado/2018.3/data/ip/xpm/xpm_fifo/hdl/xpm_fifo.sv,incdir="../../../../Arty-Z7-20-hdmi-out.srcs/sources_1/bd/hdmi_out/ipshared/58e2/hdl"incdir="../../../../Arty-Z7-20-hdmi-out.srcs/sources_1/bd/hdmi_out/ipshared/8713/hdl"incdir="../../../../Arty-Z7-20-hdmi-out.srcs/sources_1/bd/hdmi_out/ipshared/ec67/hdl"incdir="../../../../Arty-Z7-20-hdmi-out.srcs/sources_1/bd/hdmi_out/ipshared/70cf/hdl"incdir="../../../../Arty-Z7-20-hdmi-out.srcs/sources_1/bd/hdmi_out/ipshared/58e2/hdl"incdir="../../../../Arty-Z7-20-hdmi-out.srcs/sources_1/bd/hdmi_out/ipshared/8713/hdl"incdir="../../../../Arty-Z7-20-hdmi-out.srcs/sources_1/bd/hdmi_out/ipshared/ec67/hdl"incdir="../../../../Arty-Z7-20-hdmi-out.srcs/sources_1/bd/hdmi_out/ipshared/70cf/hdl"incdir="../../../../Arty-Z7-20-hdmi-out.srcs/sources_1/bd/hdmi_out/ip/hdmi_out_processing_system7_0_0"
xpm_memory.sv,systemverilog,xil_defaultlib,../../../../../../../../../Xilinx/Vivado/2018.3/data/ip/xpm/xpm_memory/hdl/xpm_memory.sv,incdir="../../../../Arty-Z7-20-hdmi-out.srcs/sources_1/bd/hdmi_out/ipshared/58e2/hdl"incdir="../../../../Arty-Z7-20-hdmi-out.srcs/sources_1/bd/hdmi_out/ipshared/8713/hdl"incdir="../../../../Arty-Z7-20-hdmi-out.srcs/sources_1/bd/hdmi_out/ipshared/ec67/hdl"incdir="../../../../Arty-Z7-20-hdmi-out.srcs/sources_1/bd/hdmi_out/ipshared/70cf/hdl"incdir="../../../../Arty-Z7-20-hdmi-out.srcs/sources_1/bd/hdmi_out/ipshared/58e2/hdl"incdir="../../../../Arty-Z7-20-hdmi-out.srcs/sources_1/bd/hdmi_out/ipshared/8713/hdl"incdir="../../../../Arty-Z7-20-hdmi-out.srcs/sources_1/bd/hdmi_out/ipshared/ec67/hdl"incdir="../../../../Arty-Z7-20-hdmi-out.srcs/sources_1/bd/hdmi_out/ipshared/70cf/hdl"incdir="../../../../Arty-Z7-20-hdmi-out.srcs/sources_1/bd/hdmi_out/ip/hdmi_out_processing_system7_0_0"
xpm_VCOMP.vhd,vhdl,xpm,../../../../../../../../../Xilinx/Vivado/2018.3/data/ip/xpm/xpm_VCOMP.vhd,incdir="../../../../Arty-Z7-20-hdmi-out.srcs/sources_1/bd/hdmi_out/ipshared/58e2/hdl"incdir="../../../../Arty-Z7-20-hdmi-out.srcs/sources_1/bd/hdmi_out/ipshared/8713/hdl"incdir="../../../../Arty-Z7-20-hdmi-out.srcs/sources_1/bd/hdmi_out/ipshared/ec67/hdl"incdir="../../../../Arty-Z7-20-hdmi-out.srcs/sources_1/bd/hdmi_out/ipshared/70cf/hdl"incdir="../../../../Arty-Z7-20-hdmi-out.srcs/sources_1/bd/hdmi_out/ipshared/58e2/hdl"incdir="../../../../Arty-Z7-20-hdmi-out.srcs/sources_1/bd/hdmi_out/ipshared/8713/hdl"incdir="../../../../Arty-Z7-20-hdmi-out.srcs/sources_1/bd/hdmi_out/ipshared/ec67/hdl"incdir="../../../../Arty-Z7-20-hdmi-out.srcs/sources_1/bd/hdmi_out/ipshared/70cf/hdl"incdir="../../../../Arty-Z7-20-hdmi-out.srcs/sources_1/bd/hdmi_out/ip/hdmi_out_processing_system7_0_0"
mmcme2_drp.v,verilog,xil_defaultlib,../../../../Arty-Z7-20-hdmi-out.srcs/sources_1/bd/hdmi_out/ipshared/9097/src/mmcme2_drp.v,incdir="../../../../Arty-Z7-20-hdmi-out.srcs/sources_1/bd/hdmi_out/ipshared/58e2/hdl"incdir="../../../../Arty-Z7-20-hdmi-out.srcs/sources_1/bd/hdmi_out/ipshared/8713/hdl"incdir="../../../../Arty-Z7-20-hdmi-out.srcs/sources_1/bd/hdmi_out/ipshared/ec67/hdl"incdir="../../../../Arty-Z7-20-hdmi-out.srcs/sources_1/bd/hdmi_out/ipshared/70cf/hdl"incdir="../../../../Arty-Z7-20-hdmi-out.srcs/sources_1/bd/hdmi_out/ipshared/58e2/hdl"incdir="../../../../Arty-Z7-20-hdmi-out.srcs/sources_1/bd/hdmi_out/ipshared/8713/hdl"incdir="../../../../Arty-Z7-20-hdmi-out.srcs/sources_1/bd/hdmi_out/ipshared/ec67/hdl"incdir="../../../../Arty-Z7-20-hdmi-out.srcs/sources_1/bd/hdmi_out/ipshared/70cf/hdl"incdir="../../../../Arty-Z7-20-hdmi-out.srcs/sources_1/bd/hdmi_out/ip/hdmi_out_processing_system7_0_0"
axi_dynclk_S00_AXI.vhd,vhdl,xil_defaultlib,../../../../Arty-Z7-20-hdmi-out.srcs/sources_1/bd/hdmi_out/ipshared/9097/src/axi_dynclk_S00_AXI.vhd,incdir="../../../../Arty-Z7-20-hdmi-out.srcs/sources_1/bd/hdmi_out/ipshared/58e2/hdl"incdir="../../../../Arty-Z7-20-hdmi-out.srcs/sources_1/bd/hdmi_out/ipshared/8713/hdl"incdir="../../../../Arty-Z7-20-hdmi-out.srcs/sources_1/bd/hdmi_out/ipshared/ec67/hdl"incdir="../../../../Arty-Z7-20-hdmi-out.srcs/sources_1/bd/hdmi_out/ipshared/70cf/hdl"incdir="../../../../Arty-Z7-20-hdmi-out.srcs/sources_1/bd/hdmi_out/ipshared/58e2/hdl"incdir="../../../../Arty-Z7-20-hdmi-out.srcs/sources_1/bd/hdmi_out/ipshared/8713/hdl"incdir="../../../../Arty-Z7-20-hdmi-out.srcs/sources_1/bd/hdmi_out/ipshared/ec67/hdl"incdir="../../../../Arty-Z7-20-hdmi-out.srcs/sources_1/bd/hdmi_out/ipshared/70cf/hdl"incdir="../../../../Arty-Z7-20-hdmi-out.srcs/sources_1/bd/hdmi_out/ip/hdmi_out_processing_system7_0_0"
axi_dynclk.vhd,vhdl,xil_defaultlib,../../../../Arty-Z7-20-hdmi-out.srcs/sources_1/bd/hdmi_out/ipshared/9097/src/axi_dynclk.vhd,incdir="../../../../Arty-Z7-20-hdmi-out.srcs/sources_1/bd/hdmi_out/ipshared/58e2/hdl"incdir="../../../../Arty-Z7-20-hdmi-out.srcs/sources_1/bd/hdmi_out/ipshared/8713/hdl"incdir="../../../../Arty-Z7-20-hdmi-out.srcs/sources_1/bd/hdmi_out/ipshared/ec67/hdl"incdir="../../../../Arty-Z7-20-hdmi-out.srcs/sources_1/bd/hdmi_out/ipshared/70cf/hdl"incdir="../../../../Arty-Z7-20-hdmi-out.srcs/sources_1/bd/hdmi_out/ipshared/58e2/hdl"incdir="../../../../Arty-Z7-20-hdmi-out.srcs/sources_1/bd/hdmi_out/ipshared/8713/hdl"incdir="../../../../Arty-Z7-20-hdmi-out.srcs/sources_1/bd/hdmi_out/ipshared/ec67/hdl"incdir="../../../../Arty-Z7-20-hdmi-out.srcs/sources_1/bd/hdmi_out/ipshared/70cf/hdl"incdir="../../../../Arty-Z7-20-hdmi-out.srcs/sources_1/bd/hdmi_out/ip/hdmi_out_processing_system7_0_0"
hdmi_out_axi_dynclk_0_0.vhd,vhdl,xil_defaultlib,../../../bd/hdmi_out/ip/hdmi_out_axi_dynclk_0_0/sim/hdmi_out_axi_dynclk_0_0.vhd,incdir="../../../../Arty-Z7-20-hdmi-out.srcs/sources_1/bd/hdmi_out/ipshared/58e2/hdl"incdir="../../../../Arty-Z7-20-hdmi-out.srcs/sources_1/bd/hdmi_out/ipshared/8713/hdl"incdir="../../../../Arty-Z7-20-hdmi-out.srcs/sources_1/bd/hdmi_out/ipshared/ec67/hdl"incdir="../../../../Arty-Z7-20-hdmi-out.srcs/sources_1/bd/hdmi_out/ipshared/70cf/hdl"incdir="../../../../Arty-Z7-20-hdmi-out.srcs/sources_1/bd/hdmi_out/ipshared/58e2/hdl"incdir="../../../../Arty-Z7-20-hdmi-out.srcs/sources_1/bd/hdmi_out/ipshared/8713/hdl"incdir="../../../../Arty-Z7-20-hdmi-out.srcs/sources_1/bd/hdmi_out/ipshared/ec67/hdl"incdir="../../../../Arty-Z7-20-hdmi-out.srcs/sources_1/bd/hdmi_out/ipshared/70cf/hdl"incdir="../../../../Arty-Z7-20-hdmi-out.srcs/sources_1/bd/hdmi_out/ip/hdmi_out_processing_system7_0_0"
axi_lite_ipif_v3_0_vh_rfs.vhd,vhdl,axi_lite_ipif_v3_0_4,../../../../Arty-Z7-20-hdmi-out.srcs/sources_1/bd/hdmi_out/ipshared/66ea/hdl/axi_lite_ipif_v3_0_vh_rfs.vhd,incdir="../../../../Arty-Z7-20-hdmi-out.srcs/sources_1/bd/hdmi_out/ipshared/58e2/hdl"incdir="../../../../Arty-Z7-20-hdmi-out.srcs/sources_1/bd/hdmi_out/ipshared/8713/hdl"incdir="../../../../Arty-Z7-20-hdmi-out.srcs/sources_1/bd/hdmi_out/ipshared/ec67/hdl"incdir="../../../../Arty-Z7-20-hdmi-out.srcs/sources_1/bd/hdmi_out/ipshared/70cf/hdl"incdir="../../../../Arty-Z7-20-hdmi-out.srcs/sources_1/bd/hdmi_out/ipshared/58e2/hdl"incdir="../../../../Arty-Z7-20-hdmi-out.srcs/sources_1/bd/hdmi_out/ipshared/8713/hdl"incdir="../../../../Arty-Z7-20-hdmi-out.srcs/sources_1/bd/hdmi_out/ipshared/ec67/hdl"incdir="../../../../Arty-Z7-20-hdmi-out.srcs/sources_1/bd/hdmi_out/ipshared/70cf/hdl"incdir="../../../../Arty-Z7-20-hdmi-out.srcs/sources_1/bd/hdmi_out/ip/hdmi_out_processing_system7_0_0"
lib_cdc_v1_0_rfs.vhd,vhdl,lib_cdc_v1_0_2,../../../../Arty-Z7-20-hdmi-out.srcs/sources_1/bd/hdmi_out/ipshared/ef1e/hdl/lib_cdc_v1_0_rfs.vhd,incdir="../../../../Arty-Z7-20-hdmi-out.srcs/sources_1/bd/hdmi_out/ipshared/58e2/hdl"incdir="../../../../Arty-Z7-20-hdmi-out.srcs/sources_1/bd/hdmi_out/ipshared/8713/hdl"incdir="../../../../Arty-Z7-20-hdmi-out.srcs/sources_1/bd/hdmi_out/ipshared/ec67/hdl"incdir="../../../../Arty-Z7-20-hdmi-out.srcs/sources_1/bd/hdmi_out/ipshared/70cf/hdl"incdir="../../../../Arty-Z7-20-hdmi-out.srcs/sources_1/bd/hdmi_out/ipshared/58e2/hdl"incdir="../../../../Arty-Z7-20-hdmi-out.srcs/sources_1/bd/hdmi_out/ipshared/8713/hdl"incdir="../../../../Arty-Z7-20-hdmi-out.srcs/sources_1/bd/hdmi_out/ipshared/ec67/hdl"incdir="../../../../Arty-Z7-20-hdmi-out.srcs/sources_1/bd/hdmi_out/ipshared/70cf/hdl"incdir="../../../../Arty-Z7-20-hdmi-out.srcs/sources_1/bd/hdmi_out/ip/hdmi_out_processing_system7_0_0"
interrupt_control_v3_1_vh_rfs.vhd,vhdl,interrupt_control_v3_1_4,../../../../Arty-Z7-20-hdmi-out.srcs/sources_1/bd/hdmi_out/ipshared/a040/hdl/interrupt_control_v3_1_vh_rfs.vhd,incdir="../../../../Arty-Z7-20-hdmi-out.srcs/sources_1/bd/hdmi_out/ipshared/58e2/hdl"incdir="../../../../Arty-Z7-20-hdmi-out.srcs/sources_1/bd/hdmi_out/ipshared/8713/hdl"incdir="../../../../Arty-Z7-20-hdmi-out.srcs/sources_1/bd/hdmi_out/ipshared/ec67/hdl"incdir="../../../../Arty-Z7-20-hdmi-out.srcs/sources_1/bd/hdmi_out/ipshared/70cf/hdl"incdir="../../../../Arty-Z7-20-hdmi-out.srcs/sources_1/bd/hdmi_out/ipshared/58e2/hdl"incdir="../../../../Arty-Z7-20-hdmi-out.srcs/sources_1/bd/hdmi_out/ipshared/8713/hdl"incdir="../../../../Arty-Z7-20-hdmi-out.srcs/sources_1/bd/hdmi_out/ipshared/ec67/hdl"incdir="../../../../Arty-Z7-20-hdmi-out.srcs/sources_1/bd/hdmi_out/ipshared/70cf/hdl"incdir="../../../../Arty-Z7-20-hdmi-out.srcs/sources_1/bd/hdmi_out/ip/hdmi_out_processing_system7_0_0"
axi_gpio_v2_0_vh_rfs.vhd,vhdl,axi_gpio_v2_0_20,../../../../Arty-Z7-20-hdmi-out.srcs/sources_1/bd/hdmi_out/ipshared/a7c9/hdl/axi_gpio_v2_0_vh_rfs.vhd,incdir="../../../../Arty-Z7-20-hdmi-out.srcs/sources_1/bd/hdmi_out/ipshared/58e2/hdl"incdir="../../../../Arty-Z7-20-hdmi-out.srcs/sources_1/bd/hdmi_out/ipshared/8713/hdl"incdir="../../../../Arty-Z7-20-hdmi-out.srcs/sources_1/bd/hdmi_out/ipshared/ec67/hdl"incdir="../../../../Arty-Z7-20-hdmi-out.srcs/sources_1/bd/hdmi_out/ipshared/70cf/hdl"incdir="../../../../Arty-Z7-20-hdmi-out.srcs/sources_1/bd/hdmi_out/ipshared/58e2/hdl"incdir="../../../../Arty-Z7-20-hdmi-out.srcs/sources_1/bd/hdmi_out/ipshared/8713/hdl"incdir="../../../../Arty-Z7-20-hdmi-out.srcs/sources_1/bd/hdmi_out/ipshared/ec67/hdl"incdir="../../../../Arty-Z7-20-hdmi-out.srcs/sources_1/bd/hdmi_out/ipshared/70cf/hdl"incdir="../../../../Arty-Z7-20-hdmi-out.srcs/sources_1/bd/hdmi_out/ip/hdmi_out_processing_system7_0_0"
hdmi_out_axi_gpio_hdmi_0.vhd,vhdl,xil_defaultlib,../../../bd/hdmi_out/ip/hdmi_out_axi_gpio_hdmi_0/sim/hdmi_out_axi_gpio_hdmi_0.vhd,incdir="../../../../Arty-Z7-20-hdmi-out.srcs/sources_1/bd/hdmi_out/ipshared/58e2/hdl"incdir="../../../../Arty-Z7-20-hdmi-out.srcs/sources_1/bd/hdmi_out/ipshared/8713/hdl"incdir="../../../../Arty-Z7-20-hdmi-out.srcs/sources_1/bd/hdmi_out/ipshared/ec67/hdl"incdir="../../../../Arty-Z7-20-hdmi-out.srcs/sources_1/bd/hdmi_out/ipshared/70cf/hdl"incdir="../../../../Arty-Z7-20-hdmi-out.srcs/sources_1/bd/hdmi_out/ipshared/58e2/hdl"incdir="../../../../Arty-Z7-20-hdmi-out.srcs/sources_1/bd/hdmi_out/ipshared/8713/hdl"incdir="../../../../Arty-Z7-20-hdmi-out.srcs/sources_1/bd/hdmi_out/ipshared/ec67/hdl"incdir="../../../../Arty-Z7-20-hdmi-out.srcs/sources_1/bd/hdmi_out/ipshared/70cf/hdl"incdir="../../../../Arty-Z7-20-hdmi-out.srcs/sources_1/bd/hdmi_out/ip/hdmi_out_processing_system7_0_0"
lib_pkg_v1_0_rfs.vhd,vhdl,lib_pkg_v1_0_2,../../../../Arty-Z7-20-hdmi-out.srcs/sources_1/bd/hdmi_out/ipshared/0513/hdl/lib_pkg_v1_0_rfs.vhd,incdir="../../../../Arty-Z7-20-hdmi-out.srcs/sources_1/bd/hdmi_out/ipshared/58e2/hdl"incdir="../../../../Arty-Z7-20-hdmi-out.srcs/sources_1/bd/hdmi_out/ipshared/8713/hdl"incdir="../../../../Arty-Z7-20-hdmi-out.srcs/sources_1/bd/hdmi_out/ipshared/ec67/hdl"incdir="../../../../Arty-Z7-20-hdmi-out.srcs/sources_1/bd/hdmi_out/ipshared/70cf/hdl"incdir="../../../../Arty-Z7-20-hdmi-out.srcs/sources_1/bd/hdmi_out/ipshared/58e2/hdl"incdir="../../../../Arty-Z7-20-hdmi-out.srcs/sources_1/bd/hdmi_out/ipshared/8713/hdl"incdir="../../../../Arty-Z7-20-hdmi-out.srcs/sources_1/bd/hdmi_out/ipshared/ec67/hdl"incdir="../../../../Arty-Z7-20-hdmi-out.srcs/sources_1/bd/hdmi_out/ipshared/70cf/hdl"incdir="../../../../Arty-Z7-20-hdmi-out.srcs/sources_1/bd/hdmi_out/ip/hdmi_out_processing_system7_0_0"
fifo_generator_vlog_beh.v,verilog,fifo_generator_v13_2_3,../../../../Arty-Z7-20-hdmi-out.srcs/sources_1/bd/hdmi_out/ipshared/64f4/simulation/fifo_generator_vlog_beh.v,incdir="../../../../Arty-Z7-20-hdmi-out.srcs/sources_1/bd/hdmi_out/ipshared/58e2/hdl"incdir="../../../../Arty-Z7-20-hdmi-out.srcs/sources_1/bd/hdmi_out/ipshared/8713/hdl"incdir="../../../../Arty-Z7-20-hdmi-out.srcs/sources_1/bd/hdmi_out/ipshared/ec67/hdl"incdir="../../../../Arty-Z7-20-hdmi-out.srcs/sources_1/bd/hdmi_out/ipshared/70cf/hdl"incdir="../../../../Arty-Z7-20-hdmi-out.srcs/sources_1/bd/hdmi_out/ipshared/58e2/hdl"incdir="../../../../Arty-Z7-20-hdmi-out.srcs/sources_1/bd/hdmi_out/ipshared/8713/hdl"incdir="../../../../Arty-Z7-20-hdmi-out.srcs/sources_1/bd/hdmi_out/ipshared/ec67/hdl"incdir="../../../../Arty-Z7-20-hdmi-out.srcs/sources_1/bd/hdmi_out/ipshared/70cf/hdl"incdir="../../../../Arty-Z7-20-hdmi-out.srcs/sources_1/bd/hdmi_out/ip/hdmi_out_processing_system7_0_0"
fifo_generator_v13_2_rfs.vhd,vhdl,fifo_generator_v13_2_3,../../../../Arty-Z7-20-hdmi-out.srcs/sources_1/bd/hdmi_out/ipshared/64f4/hdl/fifo_generator_v13_2_rfs.vhd,incdir="../../../../Arty-Z7-20-hdmi-out.srcs/sources_1/bd/hdmi_out/ipshared/58e2/hdl"incdir="../../../../Arty-Z7-20-hdmi-out.srcs/sources_1/bd/hdmi_out/ipshared/8713/hdl"incdir="../../../../Arty-Z7-20-hdmi-out.srcs/sources_1/bd/hdmi_out/ipshared/ec67/hdl"incdir="../../../../Arty-Z7-20-hdmi-out.srcs/sources_1/bd/hdmi_out/ipshared/70cf/hdl"incdir="../../../../Arty-Z7-20-hdmi-out.srcs/sources_1/bd/hdmi_out/ipshared/58e2/hdl"incdir="../../../../Arty-Z7-20-hdmi-out.srcs/sources_1/bd/hdmi_out/ipshared/8713/hdl"incdir="../../../../Arty-Z7-20-hdmi-out.srcs/sources_1/bd/hdmi_out/ipshared/ec67/hdl"incdir="../../../../Arty-Z7-20-hdmi-out.srcs/sources_1/bd/hdmi_out/ipshared/70cf/hdl"incdir="../../../../Arty-Z7-20-hdmi-out.srcs/sources_1/bd/hdmi_out/ip/hdmi_out_processing_system7_0_0"
fifo_generator_v13_2_rfs.v,verilog,fifo_generator_v13_2_3,../../../../Arty-Z7-20-hdmi-out.srcs/sources_1/bd/hdmi_out/ipshared/64f4/hdl/fifo_generator_v13_2_rfs.v,incdir="../../../../Arty-Z7-20-hdmi-out.srcs/sources_1/bd/hdmi_out/ipshared/58e2/hdl"incdir="../../../../Arty-Z7-20-hdmi-out.srcs/sources_1/bd/hdmi_out/ipshared/8713/hdl"incdir="../../../../Arty-Z7-20-hdmi-out.srcs/sources_1/bd/hdmi_out/ipshared/ec67/hdl"incdir="../../../../Arty-Z7-20-hdmi-out.srcs/sources_1/bd/hdmi_out/ipshared/70cf/hdl"incdir="../../../../Arty-Z7-20-hdmi-out.srcs/sources_1/bd/hdmi_out/ipshared/58e2/hdl"incdir="../../../../Arty-Z7-20-hdmi-out.srcs/sources_1/bd/hdmi_out/ipshared/8713/hdl"incdir="../../../../Arty-Z7-20-hdmi-out.srcs/sources_1/bd/hdmi_out/ipshared/ec67/hdl"incdir="../../../../Arty-Z7-20-hdmi-out.srcs/sources_1/bd/hdmi_out/ipshared/70cf/hdl"incdir="../../../../Arty-Z7-20-hdmi-out.srcs/sources_1/bd/hdmi_out/ip/hdmi_out_processing_system7_0_0"
lib_fifo_v1_0_rfs.vhd,vhdl,lib_fifo_v1_0_12,../../../../Arty-Z7-20-hdmi-out.srcs/sources_1/bd/hdmi_out/ipshared/544a/hdl/lib_fifo_v1_0_rfs.vhd,incdir="../../../../Arty-Z7-20-hdmi-out.srcs/sources_1/bd/hdmi_out/ipshared/58e2/hdl"incdir="../../../../Arty-Z7-20-hdmi-out.srcs/sources_1/bd/hdmi_out/ipshared/8713/hdl"incdir="../../../../Arty-Z7-20-hdmi-out.srcs/sources_1/bd/hdmi_out/ipshared/ec67/hdl"incdir="../../../../Arty-Z7-20-hdmi-out.srcs/sources_1/bd/hdmi_out/ipshared/70cf/hdl"incdir="../../../../Arty-Z7-20-hdmi-out.srcs/sources_1/bd/hdmi_out/ipshared/58e2/hdl"incdir="../../../../Arty-Z7-20-hdmi-out.srcs/sources_1/bd/hdmi_out/ipshared/8713/hdl"incdir="../../../../Arty-Z7-20-hdmi-out.srcs/sources_1/bd/hdmi_out/ipshared/ec67/hdl"incdir="../../../../Arty-Z7-20-hdmi-out.srcs/sources_1/bd/hdmi_out/ipshared/70cf/hdl"incdir="../../../../Arty-Z7-20-hdmi-out.srcs/sources_1/bd/hdmi_out/ip/hdmi_out_processing_system7_0_0"
blk_mem_gen_v8_4.v,verilog,blk_mem_gen_v8_4_2,../../../../Arty-Z7-20-hdmi-out.srcs/sources_1/bd/hdmi_out/ipshared/37c2/simulation/blk_mem_gen_v8_4.v,incdir="../../../../Arty-Z7-20-hdmi-out.srcs/sources_1/bd/hdmi_out/ipshared/58e2/hdl"incdir="../../../../Arty-Z7-20-hdmi-out.srcs/sources_1/bd/hdmi_out/ipshared/8713/hdl"incdir="../../../../Arty-Z7-20-hdmi-out.srcs/sources_1/bd/hdmi_out/ipshared/ec67/hdl"incdir="../../../../Arty-Z7-20-hdmi-out.srcs/sources_1/bd/hdmi_out/ipshared/70cf/hdl"incdir="../../../../Arty-Z7-20-hdmi-out.srcs/sources_1/bd/hdmi_out/ipshared/58e2/hdl"incdir="../../../../Arty-Z7-20-hdmi-out.srcs/sources_1/bd/hdmi_out/ipshared/8713/hdl"incdir="../../../../Arty-Z7-20-hdmi-out.srcs/sources_1/bd/hdmi_out/ipshared/ec67/hdl"incdir="../../../../Arty-Z7-20-hdmi-out.srcs/sources_1/bd/hdmi_out/ipshared/70cf/hdl"incdir="../../../../Arty-Z7-20-hdmi-out.srcs/sources_1/bd/hdmi_out/ip/hdmi_out_processing_system7_0_0"
lib_bmg_v1_0_rfs.vhd,vhdl,lib_bmg_v1_0_11,../../../../Arty-Z7-20-hdmi-out.srcs/sources_1/bd/hdmi_out/ipshared/556c/hdl/lib_bmg_v1_0_rfs.vhd,incdir="../../../../Arty-Z7-20-hdmi-out.srcs/sources_1/bd/hdmi_out/ipshared/58e2/hdl"incdir="../../../../Arty-Z7-20-hdmi-out.srcs/sources_1/bd/hdmi_out/ipshared/8713/hdl"incdir="../../../../Arty-Z7-20-hdmi-out.srcs/sources_1/bd/hdmi_out/ipshared/ec67/hdl"incdir="../../../../Arty-Z7-20-hdmi-out.srcs/sources_1/bd/hdmi_out/ipshared/70cf/hdl"incdir="../../../../Arty-Z7-20-hdmi-out.srcs/sources_1/bd/hdmi_out/ipshared/58e2/hdl"incdir="../../../../Arty-Z7-20-hdmi-out.srcs/sources_1/bd/hdmi_out/ipshared/8713/hdl"incdir="../../../../Arty-Z7-20-hdmi-out.srcs/sources_1/bd/hdmi_out/ipshared/ec67/hdl"incdir="../../../../Arty-Z7-20-hdmi-out.srcs/sources_1/bd/hdmi_out/ipshared/70cf/hdl"incdir="../../../../Arty-Z7-20-hdmi-out.srcs/sources_1/bd/hdmi_out/ip/hdmi_out_processing_system7_0_0"
lib_srl_fifo_v1_0_rfs.vhd,vhdl,lib_srl_fifo_v1_0_2,../../../../Arty-Z7-20-hdmi-out.srcs/sources_1/bd/hdmi_out/ipshared/51ce/hdl/lib_srl_fifo_v1_0_rfs.vhd,incdir="../../../../Arty-Z7-20-hdmi-out.srcs/sources_1/bd/hdmi_out/ipshared/58e2/hdl"incdir="../../../../Arty-Z7-20-hdmi-out.srcs/sources_1/bd/hdmi_out/ipshared/8713/hdl"incdir="../../../../Arty-Z7-20-hdmi-out.srcs/sources_1/bd/hdmi_out/ipshared/ec67/hdl"incdir="../../../../Arty-Z7-20-hdmi-out.srcs/sources_1/bd/hdmi_out/ipshared/70cf/hdl"incdir="../../../../Arty-Z7-20-hdmi-out.srcs/sources_1/bd/hdmi_out/ipshared/58e2/hdl"incdir="../../../../Arty-Z7-20-hdmi-out.srcs/sources_1/bd/hdmi_out/ipshared/8713/hdl"incdir="../../../../Arty-Z7-20-hdmi-out.srcs/sources_1/bd/hdmi_out/ipshared/ec67/hdl"incdir="../../../../Arty-Z7-20-hdmi-out.srcs/sources_1/bd/hdmi_out/ipshared/70cf/hdl"incdir="../../../../Arty-Z7-20-hdmi-out.srcs/sources_1/bd/hdmi_out/ip/hdmi_out_processing_system7_0_0"
axi_datamover_v5_1_vh_rfs.vhd,vhdl,axi_datamover_v5_1_20,../../../../Arty-Z7-20-hdmi-out.srcs/sources_1/bd/hdmi_out/ipshared/dfb3/hdl/axi_datamover_v5_1_vh_rfs.vhd,incdir="../../../../Arty-Z7-20-hdmi-out.srcs/sources_1/bd/hdmi_out/ipshared/58e2/hdl"incdir="../../../../Arty-Z7-20-hdmi-out.srcs/sources_1/bd/hdmi_out/ipshared/8713/hdl"incdir="../../../../Arty-Z7-20-hdmi-out.srcs/sources_1/bd/hdmi_out/ipshared/ec67/hdl"incdir="../../../../Arty-Z7-20-hdmi-out.srcs/sources_1/bd/hdmi_out/ipshared/70cf/hdl"incdir="../../../../Arty-Z7-20-hdmi-out.srcs/sources_1/bd/hdmi_out/ipshared/58e2/hdl"incdir="../../../../Arty-Z7-20-hdmi-out.srcs/sources_1/bd/hdmi_out/ipshared/8713/hdl"incdir="../../../../Arty-Z7-20-hdmi-out.srcs/sources_1/bd/hdmi_out/ipshared/ec67/hdl"incdir="../../../../Arty-Z7-20-hdmi-out.srcs/sources_1/bd/hdmi_out/ipshared/70cf/hdl"incdir="../../../../Arty-Z7-20-hdmi-out.srcs/sources_1/bd/hdmi_out/ip/hdmi_out_processing_system7_0_0"
axi_vdma_v6_3_rfs.v,verilog,axi_vdma_v6_3_6,../../../../Arty-Z7-20-hdmi-out.srcs/sources_1/bd/hdmi_out/ipshared/58e2/hdl/axi_vdma_v6_3_rfs.v,incdir="../../../../Arty-Z7-20-hdmi-out.srcs/sources_1/bd/hdmi_out/ipshared/58e2/hdl"incdir="../../../../Arty-Z7-20-hdmi-out.srcs/sources_1/bd/hdmi_out/ipshared/8713/hdl"incdir="../../../../Arty-Z7-20-hdmi-out.srcs/sources_1/bd/hdmi_out/ipshared/ec67/hdl"incdir="../../../../Arty-Z7-20-hdmi-out.srcs/sources_1/bd/hdmi_out/ipshared/70cf/hdl"incdir="../../../../Arty-Z7-20-hdmi-out.srcs/sources_1/bd/hdmi_out/ipshared/58e2/hdl"incdir="../../../../Arty-Z7-20-hdmi-out.srcs/sources_1/bd/hdmi_out/ipshared/8713/hdl"incdir="../../../../Arty-Z7-20-hdmi-out.srcs/sources_1/bd/hdmi_out/ipshared/ec67/hdl"incdir="../../../../Arty-Z7-20-hdmi-out.srcs/sources_1/bd/hdmi_out/ipshared/70cf/hdl"incdir="../../../../Arty-Z7-20-hdmi-out.srcs/sources_1/bd/hdmi_out/ip/hdmi_out_processing_system7_0_0"
axi_vdma_v6_3_rfs.vhd,vhdl,axi_vdma_v6_3_6,../../../../Arty-Z7-20-hdmi-out.srcs/sources_1/bd/hdmi_out/ipshared/58e2/hdl/axi_vdma_v6_3_rfs.vhd,incdir="../../../../Arty-Z7-20-hdmi-out.srcs/sources_1/bd/hdmi_out/ipshared/58e2/hdl"incdir="../../../../Arty-Z7-20-hdmi-out.srcs/sources_1/bd/hdmi_out/ipshared/8713/hdl"incdir="../../../../Arty-Z7-20-hdmi-out.srcs/sources_1/bd/hdmi_out/ipshared/ec67/hdl"incdir="../../../../Arty-Z7-20-hdmi-out.srcs/sources_1/bd/hdmi_out/ipshared/70cf/hdl"incdir="../../../../Arty-Z7-20-hdmi-out.srcs/sources_1/bd/hdmi_out/ipshared/58e2/hdl"incdir="../../../../Arty-Z7-20-hdmi-out.srcs/sources_1/bd/hdmi_out/ipshared/8713/hdl"incdir="../../../../Arty-Z7-20-hdmi-out.srcs/sources_1/bd/hdmi_out/ipshared/ec67/hdl"incdir="../../../../Arty-Z7-20-hdmi-out.srcs/sources_1/bd/hdmi_out/ipshared/70cf/hdl"incdir="../../../../Arty-Z7-20-hdmi-out.srcs/sources_1/bd/hdmi_out/ip/hdmi_out_processing_system7_0_0"
hdmi_out_axi_vdma_0_0.vhd,vhdl,xil_defaultlib,../../../bd/hdmi_out/ip/hdmi_out_axi_vdma_0_0/sim/hdmi_out_axi_vdma_0_0.vhd,incdir="../../../../Arty-Z7-20-hdmi-out.srcs/sources_1/bd/hdmi_out/ipshared/58e2/hdl"incdir="../../../../Arty-Z7-20-hdmi-out.srcs/sources_1/bd/hdmi_out/ipshared/8713/hdl"incdir="../../../../Arty-Z7-20-hdmi-out.srcs/sources_1/bd/hdmi_out/ipshared/ec67/hdl"incdir="../../../../Arty-Z7-20-hdmi-out.srcs/sources_1/bd/hdmi_out/ipshared/70cf/hdl"incdir="../../../../Arty-Z7-20-hdmi-out.srcs/sources_1/bd/hdmi_out/ipshared/58e2/hdl"incdir="../../../../Arty-Z7-20-hdmi-out.srcs/sources_1/bd/hdmi_out/ipshared/8713/hdl"incdir="../../../../Arty-Z7-20-hdmi-out.srcs/sources_1/bd/hdmi_out/ipshared/ec67/hdl"incdir="../../../../Arty-Z7-20-hdmi-out.srcs/sources_1/bd/hdmi_out/ipshared/70cf/hdl"incdir="../../../../Arty-Z7-20-hdmi-out.srcs/sources_1/bd/hdmi_out/ip/hdmi_out_processing_system7_0_0"
axis_infrastructure_v1_1_vl_rfs.v,verilog,axis_infrastructure_v1_1_0,../../../../Arty-Z7-20-hdmi-out.srcs/sources_1/bd/hdmi_out/ipshared/8713/hdl/axis_infrastructure_v1_1_vl_rfs.v,incdir="../../../../Arty-Z7-20-hdmi-out.srcs/sources_1/bd/hdmi_out/ipshared/58e2/hdl"incdir="../../../../Arty-Z7-20-hdmi-out.srcs/sources_1/bd/hdmi_out/ipshared/8713/hdl"incdir="../../../../Arty-Z7-20-hdmi-out.srcs/sources_1/bd/hdmi_out/ipshared/ec67/hdl"incdir="../../../../Arty-Z7-20-hdmi-out.srcs/sources_1/bd/hdmi_out/ipshared/70cf/hdl"incdir="../../../../Arty-Z7-20-hdmi-out.srcs/sources_1/bd/hdmi_out/ipshared/58e2/hdl"incdir="../../../../Arty-Z7-20-hdmi-out.srcs/sources_1/bd/hdmi_out/ipshared/8713/hdl"incdir="../../../../Arty-Z7-20-hdmi-out.srcs/sources_1/bd/hdmi_out/ipshared/ec67/hdl"incdir="../../../../Arty-Z7-20-hdmi-out.srcs/sources_1/bd/hdmi_out/ipshared/70cf/hdl"incdir="../../../../Arty-Z7-20-hdmi-out.srcs/sources_1/bd/hdmi_out/ip/hdmi_out_processing_system7_0_0"
axis_register_slice_v1_1_vl_rfs.v,verilog,axis_register_slice_v1_1_18,../../../../Arty-Z7-20-hdmi-out.srcs/sources_1/bd/hdmi_out/ipshared/af00/hdl/axis_register_slice_v1_1_vl_rfs.v,incdir="../../../../Arty-Z7-20-hdmi-out.srcs/sources_1/bd/hdmi_out/ipshared/58e2/hdl"incdir="../../../../Arty-Z7-20-hdmi-out.srcs/sources_1/bd/hdmi_out/ipshared/8713/hdl"incdir="../../../../Arty-Z7-20-hdmi-out.srcs/sources_1/bd/hdmi_out/ipshared/ec67/hdl"incdir="../../../../Arty-Z7-20-hdmi-out.srcs/sources_1/bd/hdmi_out/ipshared/70cf/hdl"incdir="../../../../Arty-Z7-20-hdmi-out.srcs/sources_1/bd/hdmi_out/ipshared/58e2/hdl"incdir="../../../../Arty-Z7-20-hdmi-out.srcs/sources_1/bd/hdmi_out/ipshared/8713/hdl"incdir="../../../../Arty-Z7-20-hdmi-out.srcs/sources_1/bd/hdmi_out/ipshared/ec67/hdl"incdir="../../../../Arty-Z7-20-hdmi-out.srcs/sources_1/bd/hdmi_out/ipshared/70cf/hdl"incdir="../../../../Arty-Z7-20-hdmi-out.srcs/sources_1/bd/hdmi_out/ip/hdmi_out_processing_system7_0_0"
tdata_hdmi_out_axis_subset_converter_0_0.v,verilog,xil_defaultlib,../../../bd/hdmi_out/ip/hdmi_out_axis_subset_converter_0_0/hdl/tdata_hdmi_out_axis_subset_converter_0_0.v,incdir="../../../../Arty-Z7-20-hdmi-out.srcs/sources_1/bd/hdmi_out/ipshared/58e2/hdl"incdir="../../../../Arty-Z7-20-hdmi-out.srcs/sources_1/bd/hdmi_out/ipshared/8713/hdl"incdir="../../../../Arty-Z7-20-hdmi-out.srcs/sources_1/bd/hdmi_out/ipshared/ec67/hdl"incdir="../../../../Arty-Z7-20-hdmi-out.srcs/sources_1/bd/hdmi_out/ipshared/70cf/hdl"incdir="../../../../Arty-Z7-20-hdmi-out.srcs/sources_1/bd/hdmi_out/ipshared/58e2/hdl"incdir="../../../../Arty-Z7-20-hdmi-out.srcs/sources_1/bd/hdmi_out/ipshared/8713/hdl"incdir="../../../../Arty-Z7-20-hdmi-out.srcs/sources_1/bd/hdmi_out/ipshared/ec67/hdl"incdir="../../../../Arty-Z7-20-hdmi-out.srcs/sources_1/bd/hdmi_out/ipshared/70cf/hdl"incdir="../../../../Arty-Z7-20-hdmi-out.srcs/sources_1/bd/hdmi_out/ip/hdmi_out_processing_system7_0_0"
tuser_hdmi_out_axis_subset_converter_0_0.v,verilog,xil_defaultlib,../../../bd/hdmi_out/ip/hdmi_out_axis_subset_converter_0_0/hdl/tuser_hdmi_out_axis_subset_converter_0_0.v,incdir="../../../../Arty-Z7-20-hdmi-out.srcs/sources_1/bd/hdmi_out/ipshared/58e2/hdl"incdir="../../../../Arty-Z7-20-hdmi-out.srcs/sources_1/bd/hdmi_out/ipshared/8713/hdl"incdir="../../../../Arty-Z7-20-hdmi-out.srcs/sources_1/bd/hdmi_out/ipshared/ec67/hdl"incdir="../../../../Arty-Z7-20-hdmi-out.srcs/sources_1/bd/hdmi_out/ipshared/70cf/hdl"incdir="../../../../Arty-Z7-20-hdmi-out.srcs/sources_1/bd/hdmi_out/ipshared/58e2/hdl"incdir="../../../../Arty-Z7-20-hdmi-out.srcs/sources_1/bd/hdmi_out/ipshared/8713/hdl"incdir="../../../../Arty-Z7-20-hdmi-out.srcs/sources_1/bd/hdmi_out/ipshared/ec67/hdl"incdir="../../../../Arty-Z7-20-hdmi-out.srcs/sources_1/bd/hdmi_out/ipshared/70cf/hdl"incdir="../../../../Arty-Z7-20-hdmi-out.srcs/sources_1/bd/hdmi_out/ip/hdmi_out_processing_system7_0_0"
tstrb_hdmi_out_axis_subset_converter_0_0.v,verilog,xil_defaultlib,../../../bd/hdmi_out/ip/hdmi_out_axis_subset_converter_0_0/hdl/tstrb_hdmi_out_axis_subset_converter_0_0.v,incdir="../../../../Arty-Z7-20-hdmi-out.srcs/sources_1/bd/hdmi_out/ipshared/58e2/hdl"incdir="../../../../Arty-Z7-20-hdmi-out.srcs/sources_1/bd/hdmi_out/ipshared/8713/hdl"incdir="../../../../Arty-Z7-20-hdmi-out.srcs/sources_1/bd/hdmi_out/ipshared/ec67/hdl"incdir="../../../../Arty-Z7-20-hdmi-out.srcs/sources_1/bd/hdmi_out/ipshared/70cf/hdl"incdir="../../../../Arty-Z7-20-hdmi-out.srcs/sources_1/bd/hdmi_out/ipshared/58e2/hdl"incdir="../../../../Arty-Z7-20-hdmi-out.srcs/sources_1/bd/hdmi_out/ipshared/8713/hdl"incdir="../../../../Arty-Z7-20-hdmi-out.srcs/sources_1/bd/hdmi_out/ipshared/ec67/hdl"incdir="../../../../Arty-Z7-20-hdmi-out.srcs/sources_1/bd/hdmi_out/ipshared/70cf/hdl"incdir="../../../../Arty-Z7-20-hdmi-out.srcs/sources_1/bd/hdmi_out/ip/hdmi_out_processing_system7_0_0"
tkeep_hdmi_out_axis_subset_converter_0_0.v,verilog,xil_defaultlib,../../../bd/hdmi_out/ip/hdmi_out_axis_subset_converter_0_0/hdl/tkeep_hdmi_out_axis_subset_converter_0_0.v,incdir="../../../../Arty-Z7-20-hdmi-out.srcs/sources_1/bd/hdmi_out/ipshared/58e2/hdl"incdir="../../../../Arty-Z7-20-hdmi-out.srcs/sources_1/bd/hdmi_out/ipshared/8713/hdl"incdir="../../../../Arty-Z7-20-hdmi-out.srcs/sources_1/bd/hdmi_out/ipshared/ec67/hdl"incdir="../../../../Arty-Z7-20-hdmi-out.srcs/sources_1/bd/hdmi_out/ipshared/70cf/hdl"incdir="../../../../Arty-Z7-20-hdmi-out.srcs/sources_1/bd/hdmi_out/ipshared/58e2/hdl"incdir="../../../../Arty-Z7-20-hdmi-out.srcs/sources_1/bd/hdmi_out/ipshared/8713/hdl"incdir="../../../../Arty-Z7-20-hdmi-out.srcs/sources_1/bd/hdmi_out/ipshared/ec67/hdl"incdir="../../../../Arty-Z7-20-hdmi-out.srcs/sources_1/bd/hdmi_out/ipshared/70cf/hdl"incdir="../../../../Arty-Z7-20-hdmi-out.srcs/sources_1/bd/hdmi_out/ip/hdmi_out_processing_system7_0_0"
tid_hdmi_out_axis_subset_converter_0_0.v,verilog,xil_defaultlib,../../../bd/hdmi_out/ip/hdmi_out_axis_subset_converter_0_0/hdl/tid_hdmi_out_axis_subset_converter_0_0.v,incdir="../../../../Arty-Z7-20-hdmi-out.srcs/sources_1/bd/hdmi_out/ipshared/58e2/hdl"incdir="../../../../Arty-Z7-20-hdmi-out.srcs/sources_1/bd/hdmi_out/ipshared/8713/hdl"incdir="../../../../Arty-Z7-20-hdmi-out.srcs/sources_1/bd/hdmi_out/ipshared/ec67/hdl"incdir="../../../../Arty-Z7-20-hdmi-out.srcs/sources_1/bd/hdmi_out/ipshared/70cf/hdl"incdir="../../../../Arty-Z7-20-hdmi-out.srcs/sources_1/bd/hdmi_out/ipshared/58e2/hdl"incdir="../../../../Arty-Z7-20-hdmi-out.srcs/sources_1/bd/hdmi_out/ipshared/8713/hdl"incdir="../../../../Arty-Z7-20-hdmi-out.srcs/sources_1/bd/hdmi_out/ipshared/ec67/hdl"incdir="../../../../Arty-Z7-20-hdmi-out.srcs/sources_1/bd/hdmi_out/ipshared/70cf/hdl"incdir="../../../../Arty-Z7-20-hdmi-out.srcs/sources_1/bd/hdmi_out/ip/hdmi_out_processing_system7_0_0"
tdest_hdmi_out_axis_subset_converter_0_0.v,verilog,xil_defaultlib,../../../bd/hdmi_out/ip/hdmi_out_axis_subset_converter_0_0/hdl/tdest_hdmi_out_axis_subset_converter_0_0.v,incdir="../../../../Arty-Z7-20-hdmi-out.srcs/sources_1/bd/hdmi_out/ipshared/58e2/hdl"incdir="../../../../Arty-Z7-20-hdmi-out.srcs/sources_1/bd/hdmi_out/ipshared/8713/hdl"incdir="../../../../Arty-Z7-20-hdmi-out.srcs/sources_1/bd/hdmi_out/ipshared/ec67/hdl"incdir="../../../../Arty-Z7-20-hdmi-out.srcs/sources_1/bd/hdmi_out/ipshared/70cf/hdl"incdir="../../../../Arty-Z7-20-hdmi-out.srcs/sources_1/bd/hdmi_out/ipshared/58e2/hdl"incdir="../../../../Arty-Z7-20-hdmi-out.srcs/sources_1/bd/hdmi_out/ipshared/8713/hdl"incdir="../../../../Arty-Z7-20-hdmi-out.srcs/sources_1/bd/hdmi_out/ipshared/ec67/hdl"incdir="../../../../Arty-Z7-20-hdmi-out.srcs/sources_1/bd/hdmi_out/ipshared/70cf/hdl"incdir="../../../../Arty-Z7-20-hdmi-out.srcs/sources_1/bd/hdmi_out/ip/hdmi_out_processing_system7_0_0"
tlast_hdmi_out_axis_subset_converter_0_0.v,verilog,xil_defaultlib,../../../bd/hdmi_out/ip/hdmi_out_axis_subset_converter_0_0/hdl/tlast_hdmi_out_axis_subset_converter_0_0.v,incdir="../../../../Arty-Z7-20-hdmi-out.srcs/sources_1/bd/hdmi_out/ipshared/58e2/hdl"incdir="../../../../Arty-Z7-20-hdmi-out.srcs/sources_1/bd/hdmi_out/ipshared/8713/hdl"incdir="../../../../Arty-Z7-20-hdmi-out.srcs/sources_1/bd/hdmi_out/ipshared/ec67/hdl"incdir="../../../../Arty-Z7-20-hdmi-out.srcs/sources_1/bd/hdmi_out/ipshared/70cf/hdl"incdir="../../../../Arty-Z7-20-hdmi-out.srcs/sources_1/bd/hdmi_out/ipshared/58e2/hdl"incdir="../../../../Arty-Z7-20-hdmi-out.srcs/sources_1/bd/hdmi_out/ipshared/8713/hdl"incdir="../../../../Arty-Z7-20-hdmi-out.srcs/sources_1/bd/hdmi_out/ipshared/ec67/hdl"incdir="../../../../Arty-Z7-20-hdmi-out.srcs/sources_1/bd/hdmi_out/ipshared/70cf/hdl"incdir="../../../../Arty-Z7-20-hdmi-out.srcs/sources_1/bd/hdmi_out/ip/hdmi_out_processing_system7_0_0"
axis_subset_converter_v1_1_vl_rfs.v,verilog,axis_subset_converter_v1_1_18,../../../../Arty-Z7-20-hdmi-out.srcs/sources_1/bd/hdmi_out/ipshared/33dd/hdl/axis_subset_converter_v1_1_vl_rfs.v,incdir="../../../../Arty-Z7-20-hdmi-out.srcs/sources_1/bd/hdmi_out/ipshared/58e2/hdl"incdir="../../../../Arty-Z7-20-hdmi-out.srcs/sources_1/bd/hdmi_out/ipshared/8713/hdl"incdir="../../../../Arty-Z7-20-hdmi-out.srcs/sources_1/bd/hdmi_out/ipshared/ec67/hdl"incdir="../../../../Arty-Z7-20-hdmi-out.srcs/sources_1/bd/hdmi_out/ipshared/70cf/hdl"incdir="../../../../Arty-Z7-20-hdmi-out.srcs/sources_1/bd/hdmi_out/ipshared/58e2/hdl"incdir="../../../../Arty-Z7-20-hdmi-out.srcs/sources_1/bd/hdmi_out/ipshared/8713/hdl"incdir="../../../../Arty-Z7-20-hdmi-out.srcs/sources_1/bd/hdmi_out/ipshared/ec67/hdl"incdir="../../../../Arty-Z7-20-hdmi-out.srcs/sources_1/bd/hdmi_out/ipshared/70cf/hdl"incdir="../../../../Arty-Z7-20-hdmi-out.srcs/sources_1/bd/hdmi_out/ip/hdmi_out_processing_system7_0_0"
top_hdmi_out_axis_subset_converter_0_0.v,verilog,xil_defaultlib,../../../bd/hdmi_out/ip/hdmi_out_axis_subset_converter_0_0/hdl/top_hdmi_out_axis_subset_converter_0_0.v,incdir="../../../../Arty-Z7-20-hdmi-out.srcs/sources_1/bd/hdmi_out/ipshared/58e2/hdl"incdir="../../../../Arty-Z7-20-hdmi-out.srcs/sources_1/bd/hdmi_out/ipshared/8713/hdl"incdir="../../../../Arty-Z7-20-hdmi-out.srcs/sources_1/bd/hdmi_out/ipshared/ec67/hdl"incdir="../../../../Arty-Z7-20-hdmi-out.srcs/sources_1/bd/hdmi_out/ipshared/70cf/hdl"incdir="../../../../Arty-Z7-20-hdmi-out.srcs/sources_1/bd/hdmi_out/ipshared/58e2/hdl"incdir="../../../../Arty-Z7-20-hdmi-out.srcs/sources_1/bd/hdmi_out/ipshared/8713/hdl"incdir="../../../../Arty-Z7-20-hdmi-out.srcs/sources_1/bd/hdmi_out/ipshared/ec67/hdl"incdir="../../../../Arty-Z7-20-hdmi-out.srcs/sources_1/bd/hdmi_out/ipshared/70cf/hdl"incdir="../../../../Arty-Z7-20-hdmi-out.srcs/sources_1/bd/hdmi_out/ip/hdmi_out_processing_system7_0_0"
hdmi_out_axis_subset_converter_0_0.v,verilog,xil_defaultlib,../../../bd/hdmi_out/ip/hdmi_out_axis_subset_converter_0_0/sim/hdmi_out_axis_subset_converter_0_0.v,incdir="../../../../Arty-Z7-20-hdmi-out.srcs/sources_1/bd/hdmi_out/ipshared/58e2/hdl"incdir="../../../../Arty-Z7-20-hdmi-out.srcs/sources_1/bd/hdmi_out/ipshared/8713/hdl"incdir="../../../../Arty-Z7-20-hdmi-out.srcs/sources_1/bd/hdmi_out/ipshared/ec67/hdl"incdir="../../../../Arty-Z7-20-hdmi-out.srcs/sources_1/bd/hdmi_out/ipshared/70cf/hdl"incdir="../../../../Arty-Z7-20-hdmi-out.srcs/sources_1/bd/hdmi_out/ipshared/58e2/hdl"incdir="../../../../Arty-Z7-20-hdmi-out.srcs/sources_1/bd/hdmi_out/ipshared/8713/hdl"incdir="../../../../Arty-Z7-20-hdmi-out.srcs/sources_1/bd/hdmi_out/ipshared/ec67/hdl"incdir="../../../../Arty-Z7-20-hdmi-out.srcs/sources_1/bd/hdmi_out/ipshared/70cf/hdl"incdir="../../../../Arty-Z7-20-hdmi-out.srcs/sources_1/bd/hdmi_out/ip/hdmi_out_processing_system7_0_0"
proc_sys_reset_v5_0_vh_rfs.vhd,vhdl,proc_sys_reset_v5_0_13,../../../../Arty-Z7-20-hdmi-out.srcs/sources_1/bd/hdmi_out/ipshared/8842/hdl/proc_sys_reset_v5_0_vh_rfs.vhd,incdir="../../../../Arty-Z7-20-hdmi-out.srcs/sources_1/bd/hdmi_out/ipshared/58e2/hdl"incdir="../../../../Arty-Z7-20-hdmi-out.srcs/sources_1/bd/hdmi_out/ipshared/8713/hdl"incdir="../../../../Arty-Z7-20-hdmi-out.srcs/sources_1/bd/hdmi_out/ipshared/ec67/hdl"incdir="../../../../Arty-Z7-20-hdmi-out.srcs/sources_1/bd/hdmi_out/ipshared/70cf/hdl"incdir="../../../../Arty-Z7-20-hdmi-out.srcs/sources_1/bd/hdmi_out/ipshared/58e2/hdl"incdir="../../../../Arty-Z7-20-hdmi-out.srcs/sources_1/bd/hdmi_out/ipshared/8713/hdl"incdir="../../../../Arty-Z7-20-hdmi-out.srcs/sources_1/bd/hdmi_out/ipshared/ec67/hdl"incdir="../../../../Arty-Z7-20-hdmi-out.srcs/sources_1/bd/hdmi_out/ipshared/70cf/hdl"incdir="../../../../Arty-Z7-20-hdmi-out.srcs/sources_1/bd/hdmi_out/ip/hdmi_out_processing_system7_0_0"
hdmi_out_proc_sys_reset_0_0.vhd,vhdl,xil_defaultlib,../../../bd/hdmi_out/ip/hdmi_out_proc_sys_reset_0_0/sim/hdmi_out_proc_sys_reset_0_0.vhd,incdir="../../../../Arty-Z7-20-hdmi-out.srcs/sources_1/bd/hdmi_out/ipshared/58e2/hdl"incdir="../../../../Arty-Z7-20-hdmi-out.srcs/sources_1/bd/hdmi_out/ipshared/8713/hdl"incdir="../../../../Arty-Z7-20-hdmi-out.srcs/sources_1/bd/hdmi_out/ipshared/ec67/hdl"incdir="../../../../Arty-Z7-20-hdmi-out.srcs/sources_1/bd/hdmi_out/ipshared/70cf/hdl"incdir="../../../../Arty-Z7-20-hdmi-out.srcs/sources_1/bd/hdmi_out/ipshared/58e2/hdl"incdir="../../../../Arty-Z7-20-hdmi-out.srcs/sources_1/bd/hdmi_out/ipshared/8713/hdl"incdir="../../../../Arty-Z7-20-hdmi-out.srcs/sources_1/bd/hdmi_out/ipshared/ec67/hdl"incdir="../../../../Arty-Z7-20-hdmi-out.srcs/sources_1/bd/hdmi_out/ipshared/70cf/hdl"incdir="../../../../Arty-Z7-20-hdmi-out.srcs/sources_1/bd/hdmi_out/ip/hdmi_out_processing_system7_0_0"
hdmi_out_proc_sys_reset_1_0.vhd,vhdl,xil_defaultlib,../../../bd/hdmi_out/ip/hdmi_out_proc_sys_reset_1_0/sim/hdmi_out_proc_sys_reset_1_0.vhd,incdir="../../../../Arty-Z7-20-hdmi-out.srcs/sources_1/bd/hdmi_out/ipshared/58e2/hdl"incdir="../../../../Arty-Z7-20-hdmi-out.srcs/sources_1/bd/hdmi_out/ipshared/8713/hdl"incdir="../../../../Arty-Z7-20-hdmi-out.srcs/sources_1/bd/hdmi_out/ipshared/ec67/hdl"incdir="../../../../Arty-Z7-20-hdmi-out.srcs/sources_1/bd/hdmi_out/ipshared/70cf/hdl"incdir="../../../../Arty-Z7-20-hdmi-out.srcs/sources_1/bd/hdmi_out/ipshared/58e2/hdl"incdir="../../../../Arty-Z7-20-hdmi-out.srcs/sources_1/bd/hdmi_out/ipshared/8713/hdl"incdir="../../../../Arty-Z7-20-hdmi-out.srcs/sources_1/bd/hdmi_out/ipshared/ec67/hdl"incdir="../../../../Arty-Z7-20-hdmi-out.srcs/sources_1/bd/hdmi_out/ipshared/70cf/hdl"incdir="../../../../Arty-Z7-20-hdmi-out.srcs/sources_1/bd/hdmi_out/ip/hdmi_out_processing_system7_0_0"
axi_infrastructure_v1_1_vl_rfs.v,verilog,axi_infrastructure_v1_1_0,../../../../Arty-Z7-20-hdmi-out.srcs/sources_1/bd/hdmi_out/ipshared/ec67/hdl/axi_infrastructure_v1_1_vl_rfs.v,incdir="../../../../Arty-Z7-20-hdmi-out.srcs/sources_1/bd/hdmi_out/ipshared/58e2/hdl"incdir="../../../../Arty-Z7-20-hdmi-out.srcs/sources_1/bd/hdmi_out/ipshared/8713/hdl"incdir="../../../../Arty-Z7-20-hdmi-out.srcs/sources_1/bd/hdmi_out/ipshared/ec67/hdl"incdir="../../../../Arty-Z7-20-hdmi-out.srcs/sources_1/bd/hdmi_out/ipshared/70cf/hdl"incdir="../../../../Arty-Z7-20-hdmi-out.srcs/sources_1/bd/hdmi_out/ipshared/58e2/hdl"incdir="../../../../Arty-Z7-20-hdmi-out.srcs/sources_1/bd/hdmi_out/ipshared/8713/hdl"incdir="../../../../Arty-Z7-20-hdmi-out.srcs/sources_1/bd/hdmi_out/ipshared/ec67/hdl"incdir="../../../../Arty-Z7-20-hdmi-out.srcs/sources_1/bd/hdmi_out/ipshared/70cf/hdl"incdir="../../../../Arty-Z7-20-hdmi-out.srcs/sources_1/bd/hdmi_out/ip/hdmi_out_processing_system7_0_0"
axi_vip_v1_1_vl_rfs.sv,systemverilog,axi_vip_v1_1_4,../../../../Arty-Z7-20-hdmi-out.srcs/sources_1/bd/hdmi_out/ipshared/98af/hdl/axi_vip_v1_1_vl_rfs.sv,incdir="../../../../Arty-Z7-20-hdmi-out.srcs/sources_1/bd/hdmi_out/ipshared/58e2/hdl"incdir="../../../../Arty-Z7-20-hdmi-out.srcs/sources_1/bd/hdmi_out/ipshared/8713/hdl"incdir="../../../../Arty-Z7-20-hdmi-out.srcs/sources_1/bd/hdmi_out/ipshared/ec67/hdl"incdir="../../../../Arty-Z7-20-hdmi-out.srcs/sources_1/bd/hdmi_out/ipshared/70cf/hdl"incdir="../../../../Arty-Z7-20-hdmi-out.srcs/sources_1/bd/hdmi_out/ipshared/58e2/hdl"incdir="../../../../Arty-Z7-20-hdmi-out.srcs/sources_1/bd/hdmi_out/ipshared/8713/hdl"incdir="../../../../Arty-Z7-20-hdmi-out.srcs/sources_1/bd/hdmi_out/ipshared/ec67/hdl"incdir="../../../../Arty-Z7-20-hdmi-out.srcs/sources_1/bd/hdmi_out/ipshared/70cf/hdl"incdir="../../../../Arty-Z7-20-hdmi-out.srcs/sources_1/bd/hdmi_out/ip/hdmi_out_processing_system7_0_0"
processing_system7_vip_v1_0_vl_rfs.sv,systemverilog,processing_system7_vip_v1_0_6,../../../../Arty-Z7-20-hdmi-out.srcs/sources_1/bd/hdmi_out/ipshared/70cf/hdl/processing_system7_vip_v1_0_vl_rfs.sv,incdir="../../../../Arty-Z7-20-hdmi-out.srcs/sources_1/bd/hdmi_out/ipshared/58e2/hdl"incdir="../../../../Arty-Z7-20-hdmi-out.srcs/sources_1/bd/hdmi_out/ipshared/8713/hdl"incdir="../../../../Arty-Z7-20-hdmi-out.srcs/sources_1/bd/hdmi_out/ipshared/ec67/hdl"incdir="../../../../Arty-Z7-20-hdmi-out.srcs/sources_1/bd/hdmi_out/ipshared/70cf/hdl"incdir="../../../../Arty-Z7-20-hdmi-out.srcs/sources_1/bd/hdmi_out/ipshared/58e2/hdl"incdir="../../../../Arty-Z7-20-hdmi-out.srcs/sources_1/bd/hdmi_out/ipshared/8713/hdl"incdir="../../../../Arty-Z7-20-hdmi-out.srcs/sources_1/bd/hdmi_out/ipshared/ec67/hdl"incdir="../../../../Arty-Z7-20-hdmi-out.srcs/sources_1/bd/hdmi_out/ipshared/70cf/hdl"incdir="../../../../Arty-Z7-20-hdmi-out.srcs/sources_1/bd/hdmi_out/ip/hdmi_out_processing_system7_0_0"
hdmi_out_processing_system7_0_0.v,verilog,xil_defaultlib,../../../bd/hdmi_out/ip/hdmi_out_processing_system7_0_0/sim/hdmi_out_processing_system7_0_0.v,incdir="../../../../Arty-Z7-20-hdmi-out.srcs/sources_1/bd/hdmi_out/ipshared/58e2/hdl"incdir="../../../../Arty-Z7-20-hdmi-out.srcs/sources_1/bd/hdmi_out/ipshared/8713/hdl"incdir="../../../../Arty-Z7-20-hdmi-out.srcs/sources_1/bd/hdmi_out/ipshared/ec67/hdl"incdir="../../../../Arty-Z7-20-hdmi-out.srcs/sources_1/bd/hdmi_out/ipshared/70cf/hdl"incdir="../../../../Arty-Z7-20-hdmi-out.srcs/sources_1/bd/hdmi_out/ipshared/58e2/hdl"incdir="../../../../Arty-Z7-20-hdmi-out.srcs/sources_1/bd/hdmi_out/ipshared/8713/hdl"incdir="../../../../Arty-Z7-20-hdmi-out.srcs/sources_1/bd/hdmi_out/ipshared/ec67/hdl"incdir="../../../../Arty-Z7-20-hdmi-out.srcs/sources_1/bd/hdmi_out/ipshared/70cf/hdl"incdir="../../../../Arty-Z7-20-hdmi-out.srcs/sources_1/bd/hdmi_out/ip/hdmi_out_processing_system7_0_0"
ClockGen.vhd,vhdl,xil_defaultlib,../../../../Arty-Z7-20-hdmi-out.srcs/sources_1/bd/hdmi_out/ipshared/dc1a/src/ClockGen.vhd,incdir="../../../../Arty-Z7-20-hdmi-out.srcs/sources_1/bd/hdmi_out/ipshared/58e2/hdl"incdir="../../../../Arty-Z7-20-hdmi-out.srcs/sources_1/bd/hdmi_out/ipshared/8713/hdl"incdir="../../../../Arty-Z7-20-hdmi-out.srcs/sources_1/bd/hdmi_out/ipshared/ec67/hdl"incdir="../../../../Arty-Z7-20-hdmi-out.srcs/sources_1/bd/hdmi_out/ipshared/70cf/hdl"incdir="../../../../Arty-Z7-20-hdmi-out.srcs/sources_1/bd/hdmi_out/ipshared/58e2/hdl"incdir="../../../../Arty-Z7-20-hdmi-out.srcs/sources_1/bd/hdmi_out/ipshared/8713/hdl"incdir="../../../../Arty-Z7-20-hdmi-out.srcs/sources_1/bd/hdmi_out/ipshared/ec67/hdl"incdir="../../../../Arty-Z7-20-hdmi-out.srcs/sources_1/bd/hdmi_out/ipshared/70cf/hdl"incdir="../../../../Arty-Z7-20-hdmi-out.srcs/sources_1/bd/hdmi_out/ip/hdmi_out_processing_system7_0_0"
SyncAsync.vhd,vhdl,xil_defaultlib,../../../../Arty-Z7-20-hdmi-out.srcs/sources_1/bd/hdmi_out/ipshared/dc1a/src/SyncAsync.vhd,incdir="../../../../Arty-Z7-20-hdmi-out.srcs/sources_1/bd/hdmi_out/ipshared/58e2/hdl"incdir="../../../../Arty-Z7-20-hdmi-out.srcs/sources_1/bd/hdmi_out/ipshared/8713/hdl"incdir="../../../../Arty-Z7-20-hdmi-out.srcs/sources_1/bd/hdmi_out/ipshared/ec67/hdl"incdir="../../../../Arty-Z7-20-hdmi-out.srcs/sources_1/bd/hdmi_out/ipshared/70cf/hdl"incdir="../../../../Arty-Z7-20-hdmi-out.srcs/sources_1/bd/hdmi_out/ipshared/58e2/hdl"incdir="../../../../Arty-Z7-20-hdmi-out.srcs/sources_1/bd/hdmi_out/ipshared/8713/hdl"incdir="../../../../Arty-Z7-20-hdmi-out.srcs/sources_1/bd/hdmi_out/ipshared/ec67/hdl"incdir="../../../../Arty-Z7-20-hdmi-out.srcs/sources_1/bd/hdmi_out/ipshared/70cf/hdl"incdir="../../../../Arty-Z7-20-hdmi-out.srcs/sources_1/bd/hdmi_out/ip/hdmi_out_processing_system7_0_0"
SyncAsyncReset.vhd,vhdl,xil_defaultlib,../../../../Arty-Z7-20-hdmi-out.srcs/sources_1/bd/hdmi_out/ipshared/dc1a/src/SyncAsyncReset.vhd,incdir="../../../../Arty-Z7-20-hdmi-out.srcs/sources_1/bd/hdmi_out/ipshared/58e2/hdl"incdir="../../../../Arty-Z7-20-hdmi-out.srcs/sources_1/bd/hdmi_out/ipshared/8713/hdl"incdir="../../../../Arty-Z7-20-hdmi-out.srcs/sources_1/bd/hdmi_out/ipshared/ec67/hdl"incdir="../../../../Arty-Z7-20-hdmi-out.srcs/sources_1/bd/hdmi_out/ipshared/70cf/hdl"incdir="../../../../Arty-Z7-20-hdmi-out.srcs/sources_1/bd/hdmi_out/ipshared/58e2/hdl"incdir="../../../../Arty-Z7-20-hdmi-out.srcs/sources_1/bd/hdmi_out/ipshared/8713/hdl"incdir="../../../../Arty-Z7-20-hdmi-out.srcs/sources_1/bd/hdmi_out/ipshared/ec67/hdl"incdir="../../../../Arty-Z7-20-hdmi-out.srcs/sources_1/bd/hdmi_out/ipshared/70cf/hdl"incdir="../../../../Arty-Z7-20-hdmi-out.srcs/sources_1/bd/hdmi_out/ip/hdmi_out_processing_system7_0_0"
DVI_Constants.vhd,vhdl,xil_defaultlib,../../../../Arty-Z7-20-hdmi-out.srcs/sources_1/bd/hdmi_out/ipshared/dc1a/src/DVI_Constants.vhd,incdir="../../../../Arty-Z7-20-hdmi-out.srcs/sources_1/bd/hdmi_out/ipshared/58e2/hdl"incdir="../../../../Arty-Z7-20-hdmi-out.srcs/sources_1/bd/hdmi_out/ipshared/8713/hdl"incdir="../../../../Arty-Z7-20-hdmi-out.srcs/sources_1/bd/hdmi_out/ipshared/ec67/hdl"incdir="../../../../Arty-Z7-20-hdmi-out.srcs/sources_1/bd/hdmi_out/ipshared/70cf/hdl"incdir="../../../../Arty-Z7-20-hdmi-out.srcs/sources_1/bd/hdmi_out/ipshared/58e2/hdl"incdir="../../../../Arty-Z7-20-hdmi-out.srcs/sources_1/bd/hdmi_out/ipshared/8713/hdl"incdir="../../../../Arty-Z7-20-hdmi-out.srcs/sources_1/bd/hdmi_out/ipshared/ec67/hdl"incdir="../../../../Arty-Z7-20-hdmi-out.srcs/sources_1/bd/hdmi_out/ipshared/70cf/hdl"incdir="../../../../Arty-Z7-20-hdmi-out.srcs/sources_1/bd/hdmi_out/ip/hdmi_out_processing_system7_0_0"
OutputSERDES.vhd,vhdl,xil_defaultlib,../../../../Arty-Z7-20-hdmi-out.srcs/sources_1/bd/hdmi_out/ipshared/dc1a/src/OutputSERDES.vhd,incdir="../../../../Arty-Z7-20-hdmi-out.srcs/sources_1/bd/hdmi_out/ipshared/58e2/hdl"incdir="../../../../Arty-Z7-20-hdmi-out.srcs/sources_1/bd/hdmi_out/ipshared/8713/hdl"incdir="../../../../Arty-Z7-20-hdmi-out.srcs/sources_1/bd/hdmi_out/ipshared/ec67/hdl"incdir="../../../../Arty-Z7-20-hdmi-out.srcs/sources_1/bd/hdmi_out/ipshared/70cf/hdl"incdir="../../../../Arty-Z7-20-hdmi-out.srcs/sources_1/bd/hdmi_out/ipshared/58e2/hdl"incdir="../../../../Arty-Z7-20-hdmi-out.srcs/sources_1/bd/hdmi_out/ipshared/8713/hdl"incdir="../../../../Arty-Z7-20-hdmi-out.srcs/sources_1/bd/hdmi_out/ipshared/ec67/hdl"incdir="../../../../Arty-Z7-20-hdmi-out.srcs/sources_1/bd/hdmi_out/ipshared/70cf/hdl"incdir="../../../../Arty-Z7-20-hdmi-out.srcs/sources_1/bd/hdmi_out/ip/hdmi_out_processing_system7_0_0"
TMDS_Encoder.vhd,vhdl,xil_defaultlib,../../../../Arty-Z7-20-hdmi-out.srcs/sources_1/bd/hdmi_out/ipshared/dc1a/src/TMDS_Encoder.vhd,incdir="../../../../Arty-Z7-20-hdmi-out.srcs/sources_1/bd/hdmi_out/ipshared/58e2/hdl"incdir="../../../../Arty-Z7-20-hdmi-out.srcs/sources_1/bd/hdmi_out/ipshared/8713/hdl"incdir="../../../../Arty-Z7-20-hdmi-out.srcs/sources_1/bd/hdmi_out/ipshared/ec67/hdl"incdir="../../../../Arty-Z7-20-hdmi-out.srcs/sources_1/bd/hdmi_out/ipshared/70cf/hdl"incdir="../../../../Arty-Z7-20-hdmi-out.srcs/sources_1/bd/hdmi_out/ipshared/58e2/hdl"incdir="../../../../Arty-Z7-20-hdmi-out.srcs/sources_1/bd/hdmi_out/ipshared/8713/hdl"incdir="../../../../Arty-Z7-20-hdmi-out.srcs/sources_1/bd/hdmi_out/ipshared/ec67/hdl"incdir="../../../../Arty-Z7-20-hdmi-out.srcs/sources_1/bd/hdmi_out/ipshared/70cf/hdl"incdir="../../../../Arty-Z7-20-hdmi-out.srcs/sources_1/bd/hdmi_out/ip/hdmi_out_processing_system7_0_0"
rgb2dvi.vhd,vhdl,xil_defaultlib,../../../../Arty-Z7-20-hdmi-out.srcs/sources_1/bd/hdmi_out/ipshared/dc1a/src/rgb2dvi.vhd,incdir="../../../../Arty-Z7-20-hdmi-out.srcs/sources_1/bd/hdmi_out/ipshared/58e2/hdl"incdir="../../../../Arty-Z7-20-hdmi-out.srcs/sources_1/bd/hdmi_out/ipshared/8713/hdl"incdir="../../../../Arty-Z7-20-hdmi-out.srcs/sources_1/bd/hdmi_out/ipshared/ec67/hdl"incdir="../../../../Arty-Z7-20-hdmi-out.srcs/sources_1/bd/hdmi_out/ipshared/70cf/hdl"incdir="../../../../Arty-Z7-20-hdmi-out.srcs/sources_1/bd/hdmi_out/ipshared/58e2/hdl"incdir="../../../../Arty-Z7-20-hdmi-out.srcs/sources_1/bd/hdmi_out/ipshared/8713/hdl"incdir="../../../../Arty-Z7-20-hdmi-out.srcs/sources_1/bd/hdmi_out/ipshared/ec67/hdl"incdir="../../../../Arty-Z7-20-hdmi-out.srcs/sources_1/bd/hdmi_out/ipshared/70cf/hdl"incdir="../../../../Arty-Z7-20-hdmi-out.srcs/sources_1/bd/hdmi_out/ip/hdmi_out_processing_system7_0_0"
hdmi_out_rgb2dvi_0_0.vhd,vhdl,xil_defaultlib,../../../bd/hdmi_out/ip/hdmi_out_rgb2dvi_0_0/sim/hdmi_out_rgb2dvi_0_0.vhd,incdir="../../../../Arty-Z7-20-hdmi-out.srcs/sources_1/bd/hdmi_out/ipshared/58e2/hdl"incdir="../../../../Arty-Z7-20-hdmi-out.srcs/sources_1/bd/hdmi_out/ipshared/8713/hdl"incdir="../../../../Arty-Z7-20-hdmi-out.srcs/sources_1/bd/hdmi_out/ipshared/ec67/hdl"incdir="../../../../Arty-Z7-20-hdmi-out.srcs/sources_1/bd/hdmi_out/ipshared/70cf/hdl"incdir="../../../../Arty-Z7-20-hdmi-out.srcs/sources_1/bd/hdmi_out/ipshared/58e2/hdl"incdir="../../../../Arty-Z7-20-hdmi-out.srcs/sources_1/bd/hdmi_out/ipshared/8713/hdl"incdir="../../../../Arty-Z7-20-hdmi-out.srcs/sources_1/bd/hdmi_out/ipshared/ec67/hdl"incdir="../../../../Arty-Z7-20-hdmi-out.srcs/sources_1/bd/hdmi_out/ipshared/70cf/hdl"incdir="../../../../Arty-Z7-20-hdmi-out.srcs/sources_1/bd/hdmi_out/ip/hdmi_out_processing_system7_0_0"
v_tc_v6_1_vh_rfs.vhd,vhdl,v_tc_v6_1_13,../../../../Arty-Z7-20-hdmi-out.srcs/sources_1/bd/hdmi_out/ipshared/a92c/hdl/v_tc_v6_1_vh_rfs.vhd,incdir="../../../../Arty-Z7-20-hdmi-out.srcs/sources_1/bd/hdmi_out/ipshared/58e2/hdl"incdir="../../../../Arty-Z7-20-hdmi-out.srcs/sources_1/bd/hdmi_out/ipshared/8713/hdl"incdir="../../../../Arty-Z7-20-hdmi-out.srcs/sources_1/bd/hdmi_out/ipshared/ec67/hdl"incdir="../../../../Arty-Z7-20-hdmi-out.srcs/sources_1/bd/hdmi_out/ipshared/70cf/hdl"incdir="../../../../Arty-Z7-20-hdmi-out.srcs/sources_1/bd/hdmi_out/ipshared/58e2/hdl"incdir="../../../../Arty-Z7-20-hdmi-out.srcs/sources_1/bd/hdmi_out/ipshared/8713/hdl"incdir="../../../../Arty-Z7-20-hdmi-out.srcs/sources_1/bd/hdmi_out/ipshared/ec67/hdl"incdir="../../../../Arty-Z7-20-hdmi-out.srcs/sources_1/bd/hdmi_out/ipshared/70cf/hdl"incdir="../../../../Arty-Z7-20-hdmi-out.srcs/sources_1/bd/hdmi_out/ip/hdmi_out_processing_system7_0_0"
v_vid_in_axi4s_v4_0_vl_rfs.v,verilog,v_vid_in_axi4s_v4_0_9,../../../../Arty-Z7-20-hdmi-out.srcs/sources_1/bd/hdmi_out/ipshared/b2aa/hdl/v_vid_in_axi4s_v4_0_vl_rfs.v,incdir="../../../../Arty-Z7-20-hdmi-out.srcs/sources_1/bd/hdmi_out/ipshared/58e2/hdl"incdir="../../../../Arty-Z7-20-hdmi-out.srcs/sources_1/bd/hdmi_out/ipshared/8713/hdl"incdir="../../../../Arty-Z7-20-hdmi-out.srcs/sources_1/bd/hdmi_out/ipshared/ec67/hdl"incdir="../../../../Arty-Z7-20-hdmi-out.srcs/sources_1/bd/hdmi_out/ipshared/70cf/hdl"incdir="../../../../Arty-Z7-20-hdmi-out.srcs/sources_1/bd/hdmi_out/ipshared/58e2/hdl"incdir="../../../../Arty-Z7-20-hdmi-out.srcs/sources_1/bd/hdmi_out/ipshared/8713/hdl"incdir="../../../../Arty-Z7-20-hdmi-out.srcs/sources_1/bd/hdmi_out/ipshared/ec67/hdl"incdir="../../../../Arty-Z7-20-hdmi-out.srcs/sources_1/bd/hdmi_out/ipshared/70cf/hdl"incdir="../../../../Arty-Z7-20-hdmi-out.srcs/sources_1/bd/hdmi_out/ip/hdmi_out_processing_system7_0_0"
v_axi4s_vid_out_v4_0_vl_rfs.v,verilog,v_axi4s_vid_out_v4_0_10,../../../../Arty-Z7-20-hdmi-out.srcs/sources_1/bd/hdmi_out/ipshared/a87e/hdl/v_axi4s_vid_out_v4_0_vl_rfs.v,incdir="../../../../Arty-Z7-20-hdmi-out.srcs/sources_1/bd/hdmi_out/ipshared/58e2/hdl"incdir="../../../../Arty-Z7-20-hdmi-out.srcs/sources_1/bd/hdmi_out/ipshared/8713/hdl"incdir="../../../../Arty-Z7-20-hdmi-out.srcs/sources_1/bd/hdmi_out/ipshared/ec67/hdl"incdir="../../../../Arty-Z7-20-hdmi-out.srcs/sources_1/bd/hdmi_out/ipshared/70cf/hdl"incdir="../../../../Arty-Z7-20-hdmi-out.srcs/sources_1/bd/hdmi_out/ipshared/58e2/hdl"incdir="../../../../Arty-Z7-20-hdmi-out.srcs/sources_1/bd/hdmi_out/ipshared/8713/hdl"incdir="../../../../Arty-Z7-20-hdmi-out.srcs/sources_1/bd/hdmi_out/ipshared/ec67/hdl"incdir="../../../../Arty-Z7-20-hdmi-out.srcs/sources_1/bd/hdmi_out/ipshared/70cf/hdl"incdir="../../../../Arty-Z7-20-hdmi-out.srcs/sources_1/bd/hdmi_out/ip/hdmi_out_processing_system7_0_0"
hdmi_out_v_axi4s_vid_out_0_0.v,verilog,xil_defaultlib,../../../bd/hdmi_out/ip/hdmi_out_v_axi4s_vid_out_0_0/sim/hdmi_out_v_axi4s_vid_out_0_0.v,incdir="../../../../Arty-Z7-20-hdmi-out.srcs/sources_1/bd/hdmi_out/ipshared/58e2/hdl"incdir="../../../../Arty-Z7-20-hdmi-out.srcs/sources_1/bd/hdmi_out/ipshared/8713/hdl"incdir="../../../../Arty-Z7-20-hdmi-out.srcs/sources_1/bd/hdmi_out/ipshared/ec67/hdl"incdir="../../../../Arty-Z7-20-hdmi-out.srcs/sources_1/bd/hdmi_out/ipshared/70cf/hdl"incdir="../../../../Arty-Z7-20-hdmi-out.srcs/sources_1/bd/hdmi_out/ipshared/58e2/hdl"incdir="../../../../Arty-Z7-20-hdmi-out.srcs/sources_1/bd/hdmi_out/ipshared/8713/hdl"incdir="../../../../Arty-Z7-20-hdmi-out.srcs/sources_1/bd/hdmi_out/ipshared/ec67/hdl"incdir="../../../../Arty-Z7-20-hdmi-out.srcs/sources_1/bd/hdmi_out/ipshared/70cf/hdl"incdir="../../../../Arty-Z7-20-hdmi-out.srcs/sources_1/bd/hdmi_out/ip/hdmi_out_processing_system7_0_0"
hdmi_out_v_tc_0_0.vhd,vhdl,xil_defaultlib,../../../bd/hdmi_out/ip/hdmi_out_v_tc_0_0/sim/hdmi_out_v_tc_0_0.vhd,incdir="../../../../Arty-Z7-20-hdmi-out.srcs/sources_1/bd/hdmi_out/ipshared/58e2/hdl"incdir="../../../../Arty-Z7-20-hdmi-out.srcs/sources_1/bd/hdmi_out/ipshared/8713/hdl"incdir="../../../../Arty-Z7-20-hdmi-out.srcs/sources_1/bd/hdmi_out/ipshared/ec67/hdl"incdir="../../../../Arty-Z7-20-hdmi-out.srcs/sources_1/bd/hdmi_out/ipshared/70cf/hdl"incdir="../../../../Arty-Z7-20-hdmi-out.srcs/sources_1/bd/hdmi_out/ipshared/58e2/hdl"incdir="../../../../Arty-Z7-20-hdmi-out.srcs/sources_1/bd/hdmi_out/ipshared/8713/hdl"incdir="../../../../Arty-Z7-20-hdmi-out.srcs/sources_1/bd/hdmi_out/ipshared/ec67/hdl"incdir="../../../../Arty-Z7-20-hdmi-out.srcs/sources_1/bd/hdmi_out/ipshared/70cf/hdl"incdir="../../../../Arty-Z7-20-hdmi-out.srcs/sources_1/bd/hdmi_out/ip/hdmi_out_processing_system7_0_0"
xlconcat_v2_1_vl_rfs.v,verilog,xlconcat_v2_1_1,../../../../Arty-Z7-20-hdmi-out.srcs/sources_1/bd/hdmi_out/ipshared/2f66/hdl/xlconcat_v2_1_vl_rfs.v,incdir="../../../../Arty-Z7-20-hdmi-out.srcs/sources_1/bd/hdmi_out/ipshared/58e2/hdl"incdir="../../../../Arty-Z7-20-hdmi-out.srcs/sources_1/bd/hdmi_out/ipshared/8713/hdl"incdir="../../../../Arty-Z7-20-hdmi-out.srcs/sources_1/bd/hdmi_out/ipshared/ec67/hdl"incdir="../../../../Arty-Z7-20-hdmi-out.srcs/sources_1/bd/hdmi_out/ipshared/70cf/hdl"incdir="../../../../Arty-Z7-20-hdmi-out.srcs/sources_1/bd/hdmi_out/ipshared/58e2/hdl"incdir="../../../../Arty-Z7-20-hdmi-out.srcs/sources_1/bd/hdmi_out/ipshared/8713/hdl"incdir="../../../../Arty-Z7-20-hdmi-out.srcs/sources_1/bd/hdmi_out/ipshared/ec67/hdl"incdir="../../../../Arty-Z7-20-hdmi-out.srcs/sources_1/bd/hdmi_out/ipshared/70cf/hdl"incdir="../../../../Arty-Z7-20-hdmi-out.srcs/sources_1/bd/hdmi_out/ip/hdmi_out_processing_system7_0_0"
hdmi_out_xlconcat_0_0.v,verilog,xil_defaultlib,../../../bd/hdmi_out/ip/hdmi_out_xlconcat_0_0/sim/hdmi_out_xlconcat_0_0.v,incdir="../../../../Arty-Z7-20-hdmi-out.srcs/sources_1/bd/hdmi_out/ipshared/58e2/hdl"incdir="../../../../Arty-Z7-20-hdmi-out.srcs/sources_1/bd/hdmi_out/ipshared/8713/hdl"incdir="../../../../Arty-Z7-20-hdmi-out.srcs/sources_1/bd/hdmi_out/ipshared/ec67/hdl"incdir="../../../../Arty-Z7-20-hdmi-out.srcs/sources_1/bd/hdmi_out/ipshared/70cf/hdl"incdir="../../../../Arty-Z7-20-hdmi-out.srcs/sources_1/bd/hdmi_out/ipshared/58e2/hdl"incdir="../../../../Arty-Z7-20-hdmi-out.srcs/sources_1/bd/hdmi_out/ipshared/8713/hdl"incdir="../../../../Arty-Z7-20-hdmi-out.srcs/sources_1/bd/hdmi_out/ipshared/ec67/hdl"incdir="../../../../Arty-Z7-20-hdmi-out.srcs/sources_1/bd/hdmi_out/ipshared/70cf/hdl"incdir="../../../../Arty-Z7-20-hdmi-out.srcs/sources_1/bd/hdmi_out/ip/hdmi_out_processing_system7_0_0"
xlconstant_v1_1_vl_rfs.v,verilog,xlconstant_v1_1_5,../../../../Arty-Z7-20-hdmi-out.srcs/sources_1/bd/hdmi_out/ipshared/4649/hdl/xlconstant_v1_1_vl_rfs.v,incdir="../../../../Arty-Z7-20-hdmi-out.srcs/sources_1/bd/hdmi_out/ipshared/58e2/hdl"incdir="../../../../Arty-Z7-20-hdmi-out.srcs/sources_1/bd/hdmi_out/ipshared/8713/hdl"incdir="../../../../Arty-Z7-20-hdmi-out.srcs/sources_1/bd/hdmi_out/ipshared/ec67/hdl"incdir="../../../../Arty-Z7-20-hdmi-out.srcs/sources_1/bd/hdmi_out/ipshared/70cf/hdl"incdir="../../../../Arty-Z7-20-hdmi-out.srcs/sources_1/bd/hdmi_out/ipshared/58e2/hdl"incdir="../../../../Arty-Z7-20-hdmi-out.srcs/sources_1/bd/hdmi_out/ipshared/8713/hdl"incdir="../../../../Arty-Z7-20-hdmi-out.srcs/sources_1/bd/hdmi_out/ipshared/ec67/hdl"incdir="../../../../Arty-Z7-20-hdmi-out.srcs/sources_1/bd/hdmi_out/ipshared/70cf/hdl"incdir="../../../../Arty-Z7-20-hdmi-out.srcs/sources_1/bd/hdmi_out/ip/hdmi_out_processing_system7_0_0"
hdmi_out_xlconstant_1_0.v,verilog,xil_defaultlib,../../../bd/hdmi_out/ip/hdmi_out_xlconstant_1_0/sim/hdmi_out_xlconstant_1_0.v,incdir="../../../../Arty-Z7-20-hdmi-out.srcs/sources_1/bd/hdmi_out/ipshared/58e2/hdl"incdir="../../../../Arty-Z7-20-hdmi-out.srcs/sources_1/bd/hdmi_out/ipshared/8713/hdl"incdir="../../../../Arty-Z7-20-hdmi-out.srcs/sources_1/bd/hdmi_out/ipshared/ec67/hdl"incdir="../../../../Arty-Z7-20-hdmi-out.srcs/sources_1/bd/hdmi_out/ipshared/70cf/hdl"incdir="../../../../Arty-Z7-20-hdmi-out.srcs/sources_1/bd/hdmi_out/ipshared/58e2/hdl"incdir="../../../../Arty-Z7-20-hdmi-out.srcs/sources_1/bd/hdmi_out/ipshared/8713/hdl"incdir="../../../../Arty-Z7-20-hdmi-out.srcs/sources_1/bd/hdmi_out/ipshared/ec67/hdl"incdir="../../../../Arty-Z7-20-hdmi-out.srcs/sources_1/bd/hdmi_out/ipshared/70cf/hdl"incdir="../../../../Arty-Z7-20-hdmi-out.srcs/sources_1/bd/hdmi_out/ip/hdmi_out_processing_system7_0_0"
generic_baseblocks_v2_1_vl_rfs.v,verilog,generic_baseblocks_v2_1_0,../../../../Arty-Z7-20-hdmi-out.srcs/sources_1/bd/hdmi_out/ipshared/b752/hdl/generic_baseblocks_v2_1_vl_rfs.v,incdir="../../../../Arty-Z7-20-hdmi-out.srcs/sources_1/bd/hdmi_out/ipshared/58e2/hdl"incdir="../../../../Arty-Z7-20-hdmi-out.srcs/sources_1/bd/hdmi_out/ipshared/8713/hdl"incdir="../../../../Arty-Z7-20-hdmi-out.srcs/sources_1/bd/hdmi_out/ipshared/ec67/hdl"incdir="../../../../Arty-Z7-20-hdmi-out.srcs/sources_1/bd/hdmi_out/ipshared/70cf/hdl"incdir="../../../../Arty-Z7-20-hdmi-out.srcs/sources_1/bd/hdmi_out/ipshared/58e2/hdl"incdir="../../../../Arty-Z7-20-hdmi-out.srcs/sources_1/bd/hdmi_out/ipshared/8713/hdl"incdir="../../../../Arty-Z7-20-hdmi-out.srcs/sources_1/bd/hdmi_out/ipshared/ec67/hdl"incdir="../../../../Arty-Z7-20-hdmi-out.srcs/sources_1/bd/hdmi_out/ipshared/70cf/hdl"incdir="../../../../Arty-Z7-20-hdmi-out.srcs/sources_1/bd/hdmi_out/ip/hdmi_out_processing_system7_0_0"
axi_register_slice_v2_1_vl_rfs.v,verilog,axi_register_slice_v2_1_18,../../../../Arty-Z7-20-hdmi-out.srcs/sources_1/bd/hdmi_out/ipshared/cc23/hdl/axi_register_slice_v2_1_vl_rfs.v,incdir="../../../../Arty-Z7-20-hdmi-out.srcs/sources_1/bd/hdmi_out/ipshared/58e2/hdl"incdir="../../../../Arty-Z7-20-hdmi-out.srcs/sources_1/bd/hdmi_out/ipshared/8713/hdl"incdir="../../../../Arty-Z7-20-hdmi-out.srcs/sources_1/bd/hdmi_out/ipshared/ec67/hdl"incdir="../../../../Arty-Z7-20-hdmi-out.srcs/sources_1/bd/hdmi_out/ipshared/70cf/hdl"incdir="../../../../Arty-Z7-20-hdmi-out.srcs/sources_1/bd/hdmi_out/ipshared/58e2/hdl"incdir="../../../../Arty-Z7-20-hdmi-out.srcs/sources_1/bd/hdmi_out/ipshared/8713/hdl"incdir="../../../../Arty-Z7-20-hdmi-out.srcs/sources_1/bd/hdmi_out/ipshared/ec67/hdl"incdir="../../../../Arty-Z7-20-hdmi-out.srcs/sources_1/bd/hdmi_out/ipshared/70cf/hdl"incdir="../../../../Arty-Z7-20-hdmi-out.srcs/sources_1/bd/hdmi_out/ip/hdmi_out_processing_system7_0_0"
axi_data_fifo_v2_1_vl_rfs.v,verilog,axi_data_fifo_v2_1_17,../../../../Arty-Z7-20-hdmi-out.srcs/sources_1/bd/hdmi_out/ipshared/c4fd/hdl/axi_data_fifo_v2_1_vl_rfs.v,incdir="../../../../Arty-Z7-20-hdmi-out.srcs/sources_1/bd/hdmi_out/ipshared/58e2/hdl"incdir="../../../../Arty-Z7-20-hdmi-out.srcs/sources_1/bd/hdmi_out/ipshared/8713/hdl"incdir="../../../../Arty-Z7-20-hdmi-out.srcs/sources_1/bd/hdmi_out/ipshared/ec67/hdl"incdir="../../../../Arty-Z7-20-hdmi-out.srcs/sources_1/bd/hdmi_out/ipshared/70cf/hdl"incdir="../../../../Arty-Z7-20-hdmi-out.srcs/sources_1/bd/hdmi_out/ipshared/58e2/hdl"incdir="../../../../Arty-Z7-20-hdmi-out.srcs/sources_1/bd/hdmi_out/ipshared/8713/hdl"incdir="../../../../Arty-Z7-20-hdmi-out.srcs/sources_1/bd/hdmi_out/ipshared/ec67/hdl"incdir="../../../../Arty-Z7-20-hdmi-out.srcs/sources_1/bd/hdmi_out/ipshared/70cf/hdl"incdir="../../../../Arty-Z7-20-hdmi-out.srcs/sources_1/bd/hdmi_out/ip/hdmi_out_processing_system7_0_0"
axi_crossbar_v2_1_vl_rfs.v,verilog,axi_crossbar_v2_1_19,../../../../Arty-Z7-20-hdmi-out.srcs/sources_1/bd/hdmi_out/ipshared/6c9d/hdl/axi_crossbar_v2_1_vl_rfs.v,incdir="../../../../Arty-Z7-20-hdmi-out.srcs/sources_1/bd/hdmi_out/ipshared/58e2/hdl"incdir="../../../../Arty-Z7-20-hdmi-out.srcs/sources_1/bd/hdmi_out/ipshared/8713/hdl"incdir="../../../../Arty-Z7-20-hdmi-out.srcs/sources_1/bd/hdmi_out/ipshared/ec67/hdl"incdir="../../../../Arty-Z7-20-hdmi-out.srcs/sources_1/bd/hdmi_out/ipshared/70cf/hdl"incdir="../../../../Arty-Z7-20-hdmi-out.srcs/sources_1/bd/hdmi_out/ipshared/58e2/hdl"incdir="../../../../Arty-Z7-20-hdmi-out.srcs/sources_1/bd/hdmi_out/ipshared/8713/hdl"incdir="../../../../Arty-Z7-20-hdmi-out.srcs/sources_1/bd/hdmi_out/ipshared/ec67/hdl"incdir="../../../../Arty-Z7-20-hdmi-out.srcs/sources_1/bd/hdmi_out/ipshared/70cf/hdl"incdir="../../../../Arty-Z7-20-hdmi-out.srcs/sources_1/bd/hdmi_out/ip/hdmi_out_processing_system7_0_0"
hdmi_out_xbar_0.v,verilog,xil_defaultlib,../../../bd/hdmi_out/ip/hdmi_out_xbar_0/sim/hdmi_out_xbar_0.v,incdir="../../../../Arty-Z7-20-hdmi-out.srcs/sources_1/bd/hdmi_out/ipshared/58e2/hdl"incdir="../../../../Arty-Z7-20-hdmi-out.srcs/sources_1/bd/hdmi_out/ipshared/8713/hdl"incdir="../../../../Arty-Z7-20-hdmi-out.srcs/sources_1/bd/hdmi_out/ipshared/ec67/hdl"incdir="../../../../Arty-Z7-20-hdmi-out.srcs/sources_1/bd/hdmi_out/ipshared/70cf/hdl"incdir="../../../../Arty-Z7-20-hdmi-out.srcs/sources_1/bd/hdmi_out/ipshared/58e2/hdl"incdir="../../../../Arty-Z7-20-hdmi-out.srcs/sources_1/bd/hdmi_out/ipshared/8713/hdl"incdir="../../../../Arty-Z7-20-hdmi-out.srcs/sources_1/bd/hdmi_out/ipshared/ec67/hdl"incdir="../../../../Arty-Z7-20-hdmi-out.srcs/sources_1/bd/hdmi_out/ipshared/70cf/hdl"incdir="../../../../Arty-Z7-20-hdmi-out.srcs/sources_1/bd/hdmi_out/ip/hdmi_out_processing_system7_0_0"
hdmi_out_s00_regslice_0.v,verilog,xil_defaultlib,../../../bd/hdmi_out/ip/hdmi_out_s00_regslice_0/sim/hdmi_out_s00_regslice_0.v,incdir="../../../../Arty-Z7-20-hdmi-out.srcs/sources_1/bd/hdmi_out/ipshared/58e2/hdl"incdir="../../../../Arty-Z7-20-hdmi-out.srcs/sources_1/bd/hdmi_out/ipshared/8713/hdl"incdir="../../../../Arty-Z7-20-hdmi-out.srcs/sources_1/bd/hdmi_out/ipshared/ec67/hdl"incdir="../../../../Arty-Z7-20-hdmi-out.srcs/sources_1/bd/hdmi_out/ipshared/70cf/hdl"incdir="../../../../Arty-Z7-20-hdmi-out.srcs/sources_1/bd/hdmi_out/ipshared/58e2/hdl"incdir="../../../../Arty-Z7-20-hdmi-out.srcs/sources_1/bd/hdmi_out/ipshared/8713/hdl"incdir="../../../../Arty-Z7-20-hdmi-out.srcs/sources_1/bd/hdmi_out/ipshared/ec67/hdl"incdir="../../../../Arty-Z7-20-hdmi-out.srcs/sources_1/bd/hdmi_out/ipshared/70cf/hdl"incdir="../../../../Arty-Z7-20-hdmi-out.srcs/sources_1/bd/hdmi_out/ip/hdmi_out_processing_system7_0_0"
hdmi_out_s00_data_fifo_0.v,verilog,xil_defaultlib,../../../bd/hdmi_out/ip/hdmi_out_s00_data_fifo_0/sim/hdmi_out_s00_data_fifo_0.v,incdir="../../../../Arty-Z7-20-hdmi-out.srcs/sources_1/bd/hdmi_out/ipshared/58e2/hdl"incdir="../../../../Arty-Z7-20-hdmi-out.srcs/sources_1/bd/hdmi_out/ipshared/8713/hdl"incdir="../../../../Arty-Z7-20-hdmi-out.srcs/sources_1/bd/hdmi_out/ipshared/ec67/hdl"incdir="../../../../Arty-Z7-20-hdmi-out.srcs/sources_1/bd/hdmi_out/ipshared/70cf/hdl"incdir="../../../../Arty-Z7-20-hdmi-out.srcs/sources_1/bd/hdmi_out/ipshared/58e2/hdl"incdir="../../../../Arty-Z7-20-hdmi-out.srcs/sources_1/bd/hdmi_out/ipshared/8713/hdl"incdir="../../../../Arty-Z7-20-hdmi-out.srcs/sources_1/bd/hdmi_out/ipshared/ec67/hdl"incdir="../../../../Arty-Z7-20-hdmi-out.srcs/sources_1/bd/hdmi_out/ipshared/70cf/hdl"incdir="../../../../Arty-Z7-20-hdmi-out.srcs/sources_1/bd/hdmi_out/ip/hdmi_out_processing_system7_0_0"
axi_protocol_converter_v2_1_vl_rfs.v,verilog,axi_protocol_converter_v2_1_18,../../../../Arty-Z7-20-hdmi-out.srcs/sources_1/bd/hdmi_out/ipshared/7a04/hdl/axi_protocol_converter_v2_1_vl_rfs.v,incdir="../../../../Arty-Z7-20-hdmi-out.srcs/sources_1/bd/hdmi_out/ipshared/58e2/hdl"incdir="../../../../Arty-Z7-20-hdmi-out.srcs/sources_1/bd/hdmi_out/ipshared/8713/hdl"incdir="../../../../Arty-Z7-20-hdmi-out.srcs/sources_1/bd/hdmi_out/ipshared/ec67/hdl"incdir="../../../../Arty-Z7-20-hdmi-out.srcs/sources_1/bd/hdmi_out/ipshared/70cf/hdl"incdir="../../../../Arty-Z7-20-hdmi-out.srcs/sources_1/bd/hdmi_out/ipshared/58e2/hdl"incdir="../../../../Arty-Z7-20-hdmi-out.srcs/sources_1/bd/hdmi_out/ipshared/8713/hdl"incdir="../../../../Arty-Z7-20-hdmi-out.srcs/sources_1/bd/hdmi_out/ipshared/ec67/hdl"incdir="../../../../Arty-Z7-20-hdmi-out.srcs/sources_1/bd/hdmi_out/ipshared/70cf/hdl"incdir="../../../../Arty-Z7-20-hdmi-out.srcs/sources_1/bd/hdmi_out/ip/hdmi_out_processing_system7_0_0"
hdmi_out_auto_pc_0.v,verilog,xil_defaultlib,../../../bd/hdmi_out/ip/hdmi_out_auto_pc_0/sim/hdmi_out_auto_pc_0.v,incdir="../../../../Arty-Z7-20-hdmi-out.srcs/sources_1/bd/hdmi_out/ipshared/58e2/hdl"incdir="../../../../Arty-Z7-20-hdmi-out.srcs/sources_1/bd/hdmi_out/ipshared/8713/hdl"incdir="../../../../Arty-Z7-20-hdmi-out.srcs/sources_1/bd/hdmi_out/ipshared/ec67/hdl"incdir="../../../../Arty-Z7-20-hdmi-out.srcs/sources_1/bd/hdmi_out/ipshared/70cf/hdl"incdir="../../../../Arty-Z7-20-hdmi-out.srcs/sources_1/bd/hdmi_out/ipshared/58e2/hdl"incdir="../../../../Arty-Z7-20-hdmi-out.srcs/sources_1/bd/hdmi_out/ipshared/8713/hdl"incdir="../../../../Arty-Z7-20-hdmi-out.srcs/sources_1/bd/hdmi_out/ipshared/ec67/hdl"incdir="../../../../Arty-Z7-20-hdmi-out.srcs/sources_1/bd/hdmi_out/ipshared/70cf/hdl"incdir="../../../../Arty-Z7-20-hdmi-out.srcs/sources_1/bd/hdmi_out/ip/hdmi_out_processing_system7_0_0"
hdmi_out_auto_pc_1.v,verilog,xil_defaultlib,../../../bd/hdmi_out/ip/hdmi_out_auto_pc_1/sim/hdmi_out_auto_pc_1.v,incdir="../../../../Arty-Z7-20-hdmi-out.srcs/sources_1/bd/hdmi_out/ipshared/58e2/hdl"incdir="../../../../Arty-Z7-20-hdmi-out.srcs/sources_1/bd/hdmi_out/ipshared/8713/hdl"incdir="../../../../Arty-Z7-20-hdmi-out.srcs/sources_1/bd/hdmi_out/ipshared/ec67/hdl"incdir="../../../../Arty-Z7-20-hdmi-out.srcs/sources_1/bd/hdmi_out/ipshared/70cf/hdl"incdir="../../../../Arty-Z7-20-hdmi-out.srcs/sources_1/bd/hdmi_out/ipshared/58e2/hdl"incdir="../../../../Arty-Z7-20-hdmi-out.srcs/sources_1/bd/hdmi_out/ipshared/8713/hdl"incdir="../../../../Arty-Z7-20-hdmi-out.srcs/sources_1/bd/hdmi_out/ipshared/ec67/hdl"incdir="../../../../Arty-Z7-20-hdmi-out.srcs/sources_1/bd/hdmi_out/ipshared/70cf/hdl"incdir="../../../../Arty-Z7-20-hdmi-out.srcs/sources_1/bd/hdmi_out/ip/hdmi_out_processing_system7_0_0"
hdmi_out.v,verilog,xil_defaultlib,../../../bd/hdmi_out/sim/hdmi_out.v,incdir="../../../../Arty-Z7-20-hdmi-out.srcs/sources_1/bd/hdmi_out/ipshared/58e2/hdl"incdir="../../../../Arty-Z7-20-hdmi-out.srcs/sources_1/bd/hdmi_out/ipshared/8713/hdl"incdir="../../../../Arty-Z7-20-hdmi-out.srcs/sources_1/bd/hdmi_out/ipshared/ec67/hdl"incdir="../../../../Arty-Z7-20-hdmi-out.srcs/sources_1/bd/hdmi_out/ipshared/70cf/hdl"incdir="../../../../Arty-Z7-20-hdmi-out.srcs/sources_1/bd/hdmi_out/ipshared/58e2/hdl"incdir="../../../../Arty-Z7-20-hdmi-out.srcs/sources_1/bd/hdmi_out/ipshared/8713/hdl"incdir="../../../../Arty-Z7-20-hdmi-out.srcs/sources_1/bd/hdmi_out/ipshared/ec67/hdl"incdir="../../../../Arty-Z7-20-hdmi-out.srcs/sources_1/bd/hdmi_out/ipshared/70cf/hdl"incdir="../../../../Arty-Z7-20-hdmi-out.srcs/sources_1/bd/hdmi_out/ip/hdmi_out_processing_system7_0_0"
glbl.v,Verilog,xil_defaultlib,glbl.v
